*** Darwin 5x5 ***
Turn = 0.
  01234
0 f....
1 .h..h
2 .....
3 ..trf
4 ....h

Turn = 1.
  01234
0 f...h
1 .....
2 .h...
3 ..t.f
4 ...rh

*** Darwin 8x8 ***
Turn = 0.
  01234567
0 ...htf.h
1 ........
2 .r...r..
3 ..th....
4 ........
5 ..f...f.
6 ........
7 ....t.h.

Turn = 2.
  01234567
0 .r..tt.h
1 ........
2 ...h....
3 ..t.h...
4 .....r..
5 ..f...f.
6 ........
7 ....t.h.

Turn = 4.
  01234567
0 ..r.tt.h
1 ........
2 ........
3 ..t...h.
4 ...h....
5 ..f...f.
6 .....r..
7 ....t.h.

Turn = 6.
  01234567
0 ...ttt.h
1 ........
2 ........
3 ..t....h
4 ........
5 ..f...f.
6 ...h....
7 ....trh.

Turn = 8.
  01234567
0 ...ttt.h
1 ........
2 ........
3 ..t....h
4 ........
5 ..f...f.
6 ........
7 ...httt.

Turn = 10.
  01234567
0 ...ttt.h
1 ........
2 ........
3 ..t....h
4 ........
5 ..f...f.
6 ........
7 ...tttt.

Turn = 12.
  01234567
0 ...ttt.h
1 ........
2 ........
3 ..t....h
4 ........
5 ..f...f.
6 ........
7 ...tttt.

Turn = 14.
  01234567
0 ...ttt.h
1 ........
2 ........
3 ..t....h
4 ........
5 ..f...f.
6 ........
7 ...tttt.

Turn = 16.
  01234567
0 ...ttt.h
1 ........
2 ........
3 ..t....h
4 ........
5 ..f...f.
6 ........
7 ...tttt.

Turn = 18.
  01234567
0 ...ttt.h
1 ........
2 ........
3 ..t....h
4 ........
5 ..f...f.
6 ........
7 ...tttt.

Turn = 20.
  01234567
0 ...ttt.h
1 ........
2 ........
3 ..t....h
4 ........
5 ..f...f.
6 ........
7 ...tttt.

Turn = 22.
  01234567
0 ...ttt.h
1 ........
2 ........
3 ..t....h
4 ........
5 ..f...f.
6 ........
7 ...tttt.

Turn = 24.
  01234567
0 ...ttt.h
1 ........
2 ........
3 ..t....h
4 ........
5 ..f...f.
6 ........
7 ...tttt.

Turn = 26.
  01234567
0 ...ttt.h
1 ........
2 ........
3 ..t....h
4 ........
5 ..f...f.
6 ........
7 ...tttt.

Turn = 28.
  01234567
0 ...ttt.h
1 ........
2 ........
3 ..t....h
4 ........
5 ..f...f.
6 ........
7 ...tttt.

Turn = 30.
  01234567
0 ...ttt.h
1 ........
2 ........
3 ..t....h
4 ........
5 ..f...f.
6 ........
7 ...tttt.

*** Darwin 10x10 ***
Turn = 0.
  0123456789
0 ......r...
1 ....t.....
2 ..f.......
3 ..f.hr....
4 ...t......
5 ........hf
6 .r....f...
7 .....fh..t
8 .....r....
9 ..........

Turn = 3.
  0123456789
0 .........r
1 ....t.....
2 ..f.......
3 .rf...h.r.
4 ...t......
5 .........f
6 ......f...
7 .....f.htt
8 ..r.......
9 ..........

Turn = 6.
  0123456789
0 .r........
1 ....t.....
2 ..f......r
3 ..f.....hr
4 ...t......
5 .........f
6 ......f...
7 .....f.ttt
8 r.........
9 ..........

*** Darwin 12x9 ***
Turn = 0.
  012345678
0 .........
1 .........
2 ......h..
3 .........
4 ..r......
5 .........
6 ....h....
7 ......f..
8 .........
9 ....f....
0 ........t
1 .......r.

Turn = 2.
  012345678
0 ......h..
1 .........
2 .........
3 .........
4 .........
5 .........
6 ..r...h..
7 ......f..
8 .........
9 ....f..r.
0 ........t
1 .........

Turn = 4.
  012345678
0 ......h..
1 .........
2 .........
3 .........
4 .........
5 .........
6 ........h
7 ......fr.
8 ..r......
9 ....f....
0 ........t
1 .........

Turn = 6.
  012345678
0 ......h..
1 .........
2 .........
3 .........
4 .........
5 .......r.
6 ........h
7 ......f..
8 .........
9 ....f....
0 ..r.....t
1 .........

Turn = 8.
  012345678
0 ......h..
1 .........
2 .........
3 .......r.
4 .........
5 .........
6 ........h
7 ......f..
8 .........
9 ....f....
0 ........t
1 ..r......

Turn = 10.
  012345678
0 ......h..
1 .......r.
2 .........
3 .........
4 .........
5 .........
6 ........h
7 ......f..
8 .........
9 ....f....
0 ........t
1 r........

*** Darwin 8x10 ***
Turn = 0.
  0123456789
0 r.........
1 ..........
2 ..........
3 ......r...
4 ...hf.....
5 ....t.....
6 .......t.t
7 ......h...

Turn = 4.
  0123456789
0 ....r.r...
1 ..........
2 ..........
3 ..........
4 h...t.....
5 ....t.....
6 .......t.t
7 ..h.......

Turn = 8.
  0123456789
0 ........rr
1 ..........
2 ..........
3 ..........
4 h...t.....
5 ....t.....
6 .......t.t
7 h.........

*** Darwin 3x3 ***
Turn = 0.
  012
0 r..
1 .t.
2 ..h

Turn = 1.
  012
0 r..
1 .th
2 ...

Turn = 2.
  012
0 .th
1 .t.
2 ...

Turn = 3.
  012
0 .tt
1 .t.
2 ...

Turn = 4.
  012
0 .tt
1 .t.
2 ...

Turn = 5.
  012
0 .tt
1 .t.
2 ...

*** Darwin 6x4 ***
Turn = 0.
  0123
0 ..r.
1 .f..
2 ...r
3 f...
4 ....
5 ...f

Turn = 2.
  0123
0 ...r
1 .f..
2 .r..
3 f...
4 ....
5 ...f

Turn = 4.
  0123
0 ...r
1 .f..
2 r...
3 f...
4 ....
5 ...f

*** Darwin 7x8 ***
Turn = 0.
  01234567
0 ........
1 ....r...
2 .ft.....
3 ...f..h.
4 .......r
5 .t..ht..
6 ...r....

Turn = 1.
  01234567
0 ........
1 .....r..
2 .ft.....
3 ...f.h.r
4 ........
5 .t...t..
6 ...rr...

Turn = 2.
  01234567
0 ........
1 ......r.
2 .ft....r
3 ...fh...
4 ........
5 .t...t..
6 ...rr...

Turn = 3.
  01234567
0 ........
1 .......r
2 .ft....r
3 ...fh...
4 ........
5 .t...t..
6 ...r.r..

Turn = 4.
  01234567
0 ........
1 .......r
2 .tt....r
3 ...fh...
4 ........
5 .t...t..
6 ..r...r.

Turn = 5.
  01234567
0 ........
1 .......r
2 .tt.....
3 ...fh..r
4 ........
5 .t...t..
6 .r.....r

Turn = 6.
  01234567
0 ........
1 .......r
2 .tt.....
3 ...fh...
4 .......r
5 .t...t..
6 r......r

Turn = 7.
  01234567
0 .......r
1 ........
2 .tt.....
3 ...fh...
4 ........
5 .t...t.r
6 r......r

*** Darwin 9x9 ***
Turn = 0.
  012345678
0 .........
1 .........
2 .........
3 .........
4 .........
5 .........
6 .........
7 .........
8 .rtfhtfr.

Turn = 3.
  012345678
0 .........
1 .........
2 .........
3 .........
4 .........
5 .......r.
6 .........
7 .rr......
8 ...tttf..

Turn = 6.
  012345678
0 .........
1 .........
2 .......r.
3 .........
4 .rr......
5 .........
6 .........
7 .........
8 ...tttt..

Turn = 9.
  012345678
0 .......r.
1 .rr......
2 .........
3 .........
4 .........
5 .........
6 .........
7 .........
8 ...tttt..

*** Darwin 10x10 ***
Turn = 0.
  0123456789
0 hhhhhhhhhh
1 ..........
2 ..........
3 ..........
4 ..........
5 ..........
6 ..........
7 ..........
8 ..........
9 ..........

Turn = 5.
  0123456789
0 ..........
1 ..........
2 ..........
3 ..........
4 ..........
5 hhhhhhhhhh
6 ..........
7 ..........
8 ..........
9 ..........

Turn = 10.
  0123456789
0 ..........
1 ..........
2 ..........
3 ..........
4 ..........
5 ..........
6 ..........
7 ..........
8 ..........
9 hhhhhhhhhh

*** Darwin 7x4 ***
Turn = 0.
  0123
0 .h.f
1 .r..
2 ...t
3 ..f.
4 ....
5 ....
6 ....

Turn = 4.
  0123
0 .h.t
1 ...t
2 ...t
3 ..f.
4 ....
5 ....
6 ....

Turn = 8.
  0123
0 .h.t
1 ...t
2 ...t
3 ..f.
4 ....
5 ....
6 ....

*** Darwin 5x5 ***
Turn = 0.
  01234
0 ....h
1 ...h.
2 f...h
3 t....
4 .r.f.

Turn = 1.
  01234
0 ....h
1 ....h
2 f...h
3 tr...
4 ...f.

Turn = 2.
  01234
0 ....h
1 ....h
2 fr..h
3 t....
4 ...f.

Turn = 3.
  01234
0 ....h
1 .r..h
2 f...h
3 t....
4 ...f.

Turn = 4.
  01234
0 .r..h
1 ....h
2 t...h
3 t....
4 ...f.

Turn = 5.
  01234
0 .r..h
1 ....h
2 t...h
3 t....
4 ...f.

*** Darwin 2x2 ***
Turn = 0.
  01
0 f.
1 .f

Turn = 1.
  01
0 f.
1 .f

Turn = 2.
  01
0 f.
1 .f

*** Darwin 3x3 ***
Turn = 0.
  012
0 hh.
1 ...
2 ..h

Turn = 3.
  012
0 hhh
1 ...
2 ...

*** Darwin 7x7 ***
Turn = 0.
  0123456
0 ...f...
1 .f.....
2 .......
3 .....r.
4 t...h..
5 ..t....
6 ....h..

Turn = 1.
  0123456
0 ...f...
1 .f.....
2 .......
3 .......
4 t..h.r.
5 ..t.h..
6 .......

Turn = 2.
  0123456
0 ...f...
1 .f.....
2 .......
3 .......
4 t.t.h..
5 ..t..r.
6 .......

Turn = 3.
  0123456
0 ...f...
1 .f.....
2 .......
3 ....h..
4 t.t....
5 ..t....
6 .....r.

Turn = 4.
  0123456
0 ...f...
1 .f.....
2 ....h..
3 .......
4 t.t....
5 ..t....
6 .....r.

*** Darwin 3x5 ***
Turn = 0.
  01234
0 t...r
1 ...h.
2 .ff..

Turn = 5.
  01234
0 t...r
1 ....r
2 .ff..

*** Darwin 6x6 ***
Turn = 0.
  012345
0 h....r
1 ......
2 ......
3 ......
4 ......
5 t....f

Turn = 1.
  012345
0 .h..r.
1 ......
2 ......
3 ......
4 ......
5 t....f

Turn = 2.
  012345
0 ..hr..
1 ......
2 ......
3 ......
4 ......
5 t....f

Turn = 3.
  012345
0 ..rr..
1 ......
2 ......
3 ......
4 ......
5 t....f

Turn = 4.
  012345
0 ..rr..
1 ......
2 ......
3 ......
4 ......
5 t....f

Turn = 5.
  012345
0 ......
1 ..rr..
2 ......
3 ......
4 ......
5 t....f

Turn = 6.
  012345
0 ......
1 ......
2 ..rr..
3 ......
4 ......
5 t....f

Turn = 7.
  012345
0 ......
1 ......
2 ......
3 ..rr..
4 ......
5 t....f

Turn = 8.
  012345
0 ......
1 ......
2 ......
3 ......
4 ..rr..
5 t....f

Turn = 9.
  012345
0 ......
1 ......
2 ......
3 ......
4 ......
5 t.rr.f

Turn = 10.
  012345
0 ......
1 ......
2 ......
3 ......
4 ......
5 t.rr.f

Turn = 11.
  012345
0 ......
1 ......
2 ......
3 ......
4 ......
5 trr..f

Turn = 12.
  012345
0 ......
1 ......
2 ......
3 ......
4 ......
5 trr..f

*** Darwin 5x7 ***
Turn = 0.
  0123456
0 .......
1 .......
2 .h.....
3 ....r..
4 ..r....

Turn = 3.
  0123456
0 .h.....
1 .......
2 .......
3 ......r
4 r......

*** Darwin 4x4 ***
Turn = 0.
  0123
0 ....
1 r...
2 ..r.
3 .t..

Turn = 1.
  0123
0 r...
1 ....
2 ....
3 .tt.

Turn = 2.
  0123
0 r...
1 ....
2 ....
3 .tt.

Turn = 3.
  0123
0 .r..
1 ....
2 ....
3 .tt.

Turn = 4.
  0123
0 ..r.
1 ....
2 ....
3 .tt.

Turn = 5.
  0123
0 ...r
1 ....
2 ....
3 .tt.

Turn = 6.
  0123
0 ...r
1 ....
2 ....
3 .tt.

Turn = 7.
  0123
0 ...r
1 ....
2 ....
3 .tt.

*** Darwin 7x7 ***
Turn = 0.
  0123456
0 ..h....
1 .f.r...
2 .....t.
3 ....h..
4 .......
5 f......
6 ..t...r

Turn = 2.
  0123456
0 ...r...
1 .f.....
2 ..h..t.
3 ..h....
4 .......
5 f......
6 ..t...r

Turn = 4.
  0123456
0 .r.....
1 .f.....
2 .....t.
3 h.h....
4 .......
5 f......
6 ..t.r..

Turn = 6.
  0123456
0 r......
1 .f.....
2 .....t.
3 h......
4 .......
5 f.h....
6 ..rr...

Turn = 8.
  0123456
0 .r.....
1 .f.....
2 .....t.
3 h......
4 .......
5 f.h....
6 .r.r...
