*** Darwin 6x12 ***
Turn = 0.
  012345678901
0 ............
1 ............
2 ......f...r.
3 ............
4 ...h......f.
5 t...........

Turn = 1.
  012345678901
0 ............
1 ............
2 ......f..r..
3 ............
4 ....h.....f.
5 t...........

Turn = 2.
  012345678901
0 ............
1 ............
2 ......f.r...
3 ............
4 .....h....f.
5 t...........

Turn = 3.
  012345678901
0 ............
1 ............
2 ......fr....
3 ............
4 ......h...f.
5 t...........

Turn = 4.
  012345678901
0 ............
1 ............
2 ......rr....
3 ............
4 .......h..f.
5 t...........

Turn = 5.
  012345678901
0 ............
1 ............
2 ......r.....
3 ......r.....
4 ........h.f.
5 t...........

Turn = 6.
  012345678901
0 ............
1 ............
2 .....r......
3 ............
4 ......r..hf.
5 t...........

Turn = 7.
  012345678901
0 ............
1 ............
2 ....r.......
3 ............
4 .........hf.
5 t.....r.....

Turn = 8.
  012345678901
0 ............
1 ............
2 ...r........
3 ............
4 .........hf.
5 t.....r.....

Turn = 9.
  012345678901
0 ............
1 ............
2 ..r.........
3 ............
4 .........hf.
5 t....r......

*** Darwin 2x19 ***
Turn = 0.
  0123456789012345678
0 .....r.............
1 ...r...............

Turn = 2.
  0123456789012345678
0 ......r............
1 .r.................

Turn = 4.
  0123456789012345678
0 ........r..........
1 r..................

Turn = 6.
  0123456789012345678
0 ..........r........
1 r..................

Turn = 8.
  0123456789012345678
0 r...........r......
1 ...................

*** Darwin 15x14 ***
Turn = 0.
  01234567890123
0 ..............
1 ........t.....
2 ..............
3 ..............
4 ..............
5 ..............
6 ..............
7 ..............
8 ..............
9 ..............
0 ..............
1 ..............
2 ........f.....
3 ..............
4 ..............

Turn = 3.
  01234567890123
0 ..............
1 ........t.....
2 ..............
3 ..............
4 ..............
5 ..............
6 ..............
7 ..............
8 ..............
9 ..............
0 ..............
1 ..............
2 ........f.....
3 ..............
4 ..............

Turn = 6.
  01234567890123
0 ..............
1 ........t.....
2 ..............
3 ..............
4 ..............
5 ..............
6 ..............
7 ..............
8 ..............
9 ..............
0 ..............
1 ..............
2 ........f.....
3 ..............
4 ..............

*** Darwin 9x3 ***
Turn = 0.
  012
0 t..
1 ..t
2 ...
3 ...
4 ...
5 ..h
6 ...
7 ...
8 ...

Turn = 1.
  012
0 t..
1 ..t
2 ...
3 ...
4 ...
5 .h.
6 ...
7 ...
8 ...

Turn = 2.
  012
0 t..
1 ..t
2 ...
3 ...
4 ...
5 h..
6 ...
7 ...
8 ...

Turn = 3.
  012
0 t..
1 ..t
2 ...
3 ...
4 ...
5 h..
6 ...
7 ...
8 ...

Turn = 4.
  012
0 t..
1 ..t
2 ...
3 ...
4 ...
5 h..
6 ...
7 ...
8 ...

Turn = 5.
  012
0 t..
1 ..t
2 ...
3 ...
4 ...
5 h..
6 ...
7 ...
8 ...

Turn = 6.
  012
0 t..
1 ..t
2 ...
3 ...
4 ...
5 h..
6 ...
7 ...
8 ...

Turn = 7.
  012
0 t..
1 ..t
2 ...
3 ...
4 ...
5 h..
6 ...
7 ...
8 ...

Turn = 8.
  012
0 t..
1 ..t
2 ...
3 ...
4 ...
5 h..
6 ...
7 ...
8 ...

Turn = 9.
  012
0 t..
1 ..t
2 ...
3 ...
4 ...
5 h..
6 ...
7 ...
8 ...

*** Darwin 4x11 ***
Turn = 0.
  01234567890
0 .....r.r...
1 h.h........
2 .rh........
3 ......rt..t

Turn = 1.
  01234567890
0 .......r...
1 ...h.r.....
2 rr.........
3 ..h...rt..t

Turn = 2.
  01234567890
0 ........r..
1 ....h......
2 r....r.....
3 r.h...rr..t

Turn = 3.
  01234567890
0 .........r.
1 .....h.....
2 r......r...
3 r.h..rr...t

Turn = 4.
  01234567890
0 ..........r
1 r.....hr...
2 ...........
3 r.h..rr...t

Turn = 5.
  01234567890
0 r......r..r
1 ......h....
2 ...........
3 r.h..rr...t

Turn = 6.
  01234567890
0 r......r...
1 .......h..r
2 ...........
3 .rh..rr...t

Turn = 7.
  01234567890
0 .r......r..
1 ........h..
2 ..........t
3 .rr..r.r..t

Turn = 8.
  01234567890
0 ..r......r.
1 .........h.
2 .....r....t
3 .r.r....r.t

Turn = 9.
  01234567890
0 ...r......r
1 .....r....h
2 .r........t
3 ....r....tt

*** Darwin 16x18 ***
Turn = 0.
  012345678901234567
0 ..................
1 ..................
2 ..................
3 ..................
4 ..................
5 ..................
6 ..................
7 ..................
8 ..................
9 ..................
0 ..................
1 ........r.........
2 ..........r.......
3 ..................
4 ..................
5 ............f.....

Turn = 2.
  012345678901234567
0 ..................
1 ..................
2 ..................
3 ..................
4 ..................
5 ..................
6 ..................
7 ..................
8 ..................
9 ..................
0 ..................
1 ..........r.......
2 ........r.........
3 ..................
4 ..................
5 ............f.....

Turn = 4.
  012345678901234567
0 ..................
1 ..................
2 ..................
3 ..................
4 ..................
5 ..................
6 ..................
7 ..................
8 ..................
9 ..................
0 ..................
1 ............r.....
2 ......r...........
3 ..................
4 ..................
5 ............f.....

Turn = 6.
  012345678901234567
0 ..................
1 ..................
2 ..................
3 ..................
4 ..................
5 ..................
6 ..................
7 ..................
8 ..................
9 ..................
0 ..................
1 ..............r...
2 ....r.............
3 ..................
4 ..................
5 ............f.....

Turn = 8.
  012345678901234567
0 ..................
1 ..................
2 ..................
3 ..................
4 ..................
5 ..................
6 ..................
7 ..................
8 ..................
9 ..................
0 ..................
1 ................r.
2 ..r...............
3 ..................
4 ..................
5 ............f.....

*** Darwin 19x13 ***
Turn = 0.
  0123456789012
0 .............
1 .............
2 f.....f......
3 .............
4 .............
5 ....r..h.....
6 .............
7 .............
8 ......t....r.
9 .............
0 .............
1 .............
2 .............
3 .............
4 .............
5 .t..t........
6 .............
7 .....t.......
8 .............

Turn = 1.
  0123456789012
0 .............
1 .............
2 f.....f......
3 .............
4 .............
5 .............
6 ....r..h.....
7 .............
8 ......t......
9 ...........r.
0 .............
1 .............
2 .............
3 .............
4 .............
5 .t..t........
6 .............
7 .....t.......
8 .............

Turn = 2.
  0123456789012
0 .............
1 .............
2 f.....f......
3 .............
4 .............
5 .............
6 .............
7 ....r..h.....
8 ......t......
9 .............
0 ...........r.
1 .............
2 .............
3 .............
4 .............
5 .t..t........
6 .............
7 .....t.......
8 .............

Turn = 3.
  0123456789012
0 .............
1 .............
2 f.....f......
3 .............
4 .............
5 .............
6 .............
7 .............
8 ....r.th.....
9 .............
0 .............
1 ...........r.
2 .............
3 .............
4 .............
5 .t..t........
6 .............
7 .....t.......
8 .............

Turn = 4.
  0123456789012
0 .............
1 .............
2 f.....f......
3 .............
4 .............
5 .............
6 .............
7 .............
8 ......t......
9 ....r..h.....
0 .............
1 .............
2 ...........r.
3 .............
4 .............
5 .t..t........
6 .............
7 .....t.......
8 .............

Turn = 5.
  0123456789012
0 .............
1 .............
2 f.....f......
3 .............
4 .............
5 .............
6 .............
7 .............
8 ......t......
9 .............
0 ....r..h.....
1 .............
2 .............
3 ...........r.
4 .............
5 .t..t........
6 .............
7 .....t.......
8 .............

Turn = 6.
  0123456789012
0 .............
1 .............
2 f.....f......
3 .............
4 .............
5 .............
6 .............
7 .............
8 ......t......
9 .............
0 .............
1 ....r..h.....
2 .............
3 .............
4 ...........r.
5 .t..t........
6 .............
7 .....t.......
8 .............

Turn = 7.
  0123456789012
0 .............
1 .............
2 f.....f......
3 .............
4 .............
5 .............
6 .............
7 .............
8 ......t......
9 .............
0 .............
1 .............
2 ....r..h.....
3 .............
4 .............
5 .t..t......r.
6 .............
7 .....t.......
8 .............

Turn = 8.
  0123456789012
0 .............
1 .............
2 f.....f......
3 .............
4 .............
5 .............
6 .............
7 .............
8 ......t......
9 .............
0 .............
1 .............
2 .............
3 ....r..h.....
4 .............
5 .t..t........
6 ...........r.
7 .....t.......
8 .............

*** Darwin 1x18 ***
Turn = 0.
  012345678901234567
0 ........t.........

Turn = 3.
  012345678901234567
0 ........t.........

Turn = 6.
  012345678901234567
0 ........t.........

*** Darwin 9x14 ***
Turn = 0.
  01234567890123
0 ..............
1 .............f
2 ..............
3 ..............
4 .......f......
5 h.............
6 ......r.......
7 ..............
8 ..............

Turn = 2.
  01234567890123
0 ..............
1 .............f
2 ..............
3 ..............
4 .......f......
5 ..............
6 ....r.........
7 h.............
8 ..............

Turn = 4.
  01234567890123
0 ..............
1 .............f
2 ..............
3 ..............
4 .......f......
5 ..............
6 ..r...........
7 ..............
8 h.............

Turn = 6.
  01234567890123
0 ..............
1 .............f
2 ..............
3 ..............
4 .......f......
5 ..............
6 r.............
7 ..............
8 h.............

*** Darwin 18x19 ***
Turn = 0.
  0123456789012345678
0 ...................
1 ...r...h...........
2 ..f................
3 ..................r
4 ...................
5 ...................
6 .....f.t...........
7 ..........h........
8 ...................
9 ...................
0 ...................
1 ...................
2 ...................
3 ....h..............
4 ...................
5 t..................
6 ...................
7 ...................

Turn = 2.
  0123456789012345678
0 ...r...............
1 .........h.........
2 ..f................
3 ...................
4 ..................r
5 ...................
6 .....f.t...........
7 ........h..........
8 ...................
9 ...................
0 ...................
1 ...................
2 ...................
3 ...................
4 ...................
5 t...h..............
6 ...................
7 ...................

Turn = 4.
  0123456789012345678
0 .r.................
1 ...........h.......
2 ..f................
3 ...................
4 ...................
5 ...................
6 .....f.t..........r
7 ......h............
8 ...................
9 ...................
0 ...................
1 ...................
2 ...................
3 ...................
4 ...................
5 t..................
6 ...................
7 ....h..............

Turn = 6.
  0123456789012345678
0 r..................
1 .............h.....
2 ..f................
3 ...................
4 ...................
5 ...................
6 .....f.t...........
7 ....h..............
8 ..................r
9 ...................
0 ...................
1 ...................
2 ...................
3 ...................
4 ...................
5 t..................
6 ...................
7 ....h..............

*** Darwin 18x6 ***
Turn = 0.
  012345
0 ......
1 ......
2 ......
3 ......
4 ......
5 ....f.
6 ...t..
7 ......
8 t.h...
9 ......
0 ......
1 h...f.
2 ......
3 ......
4 ......
5 ..h...
6 .r....
7 ......

Turn = 1.
  012345
0 ......
1 ......
2 ......
3 ......
4 ......
5 ....f.
6 ...t..
7 ......
8 t.....
9 ..h...
0 ......
1 h...f.
2 ......
3 ......
4 ......
5 ......
6 r.h...
7 ......

Turn = 2.
  012345
0 ......
1 ......
2 ......
3 ......
4 ......
5 ....f.
6 ...t..
7 ......
8 t.....
9 ......
0 ..h...
1 h...f.
2 ......
3 ......
4 ......
5 ......
6 r.....
7 ..h...

Turn = 3.
  012345
0 ......
1 ......
2 ......
3 ......
4 ......
5 ....f.
6 ...t..
7 ......
8 t.....
9 ......
0 ......
1 h.h.f.
2 ......
3 ......
4 ......
5 r.....
6 ......
7 ..h...

Turn = 4.
  012345
0 ......
1 ......
2 ......
3 ......
4 ......
5 ....f.
6 ...t..
7 ......
8 t.....
9 ......
0 ......
1 h...f.
2 ..h...
3 ......
4 r.....
5 ......
6 ......
7 ..h...

Turn = 5.
  012345
0 ......
1 ......
2 ......
3 ......
4 ......
5 ....f.
6 ...t..
7 ......
8 t.....
9 ......
0 ......
1 h...f.
2 ......
3 r.h...
4 ......
5 ......
6 ......
7 ..h...

Turn = 6.
  012345
0 ......
1 ......
2 ......
3 ......
4 ......
5 ....f.
6 ...t..
7 ......
8 t.....
9 ......
0 ......
1 h...f.
2 r.....
3 ......
4 ..h...
5 ......
6 ......
7 ..h...

*** Darwin 17x19 ***
Turn = 0.
  0123456789012345678
0 ...................
1 ...................
2 ...................
3 ...................
4 .....r.............
5 ...................
6 ...................
7 ...................
8 ...................
9 .....r.............
0 ...................
1 ..h............f...
2 ...................
3 ...................
4 ...................
5 ...................
6 ...................

Turn = 3.
  0123456789012345678
0 ...................
1 .....r.............
2 ...................
3 ...................
4 ...................
5 ...................
6 ...................
7 ...................
8 ...................
9 ...................
0 ...................
1 h..............f...
2 .....r.............
3 ...................
4 ...................
5 ...................
6 ...................

*** Darwin 10x9 ***
Turn = 0.
  012345678
0 .........
1 .........
2 .........
3 .........
4 .........
5 .........
6 .........
7 .........
8 f.....h..
9 .........

Turn = 1.
  012345678
0 .........
1 .........
2 .........
3 .........
4 .........
5 .........
6 .........
7 .........
8 f......h.
9 .........

Turn = 2.
  012345678
0 .........
1 .........
2 .........
3 .........
4 .........
5 .........
6 .........
7 .........
8 f.......h
9 .........

Turn = 3.
  012345678
0 .........
1 .........
2 .........
3 .........
4 .........
5 .........
6 .........
7 .........
8 f.......h
9 .........

Turn = 4.
  012345678
0 .........
1 .........
2 .........
3 .........
4 .........
5 .........
6 .........
7 .........
8 f.......h
9 .........

Turn = 5.
  012345678
0 .........
1 .........
2 .........
3 .........
4 .........
5 .........
6 .........
7 .........
8 f.......h
9 .........

Turn = 6.
  012345678
0 .........
1 .........
2 .........
3 .........
4 .........
5 .........
6 .........
7 .........
8 f.......h
9 .........

*** Darwin 5x7 ***
Turn = 0.
  0123456
0 ......t
1 .....h.
2 .......
3 .......
4 .......

Turn = 3.
  0123456
0 ......t
1 .......
2 .......
3 .......
4 .....h.

*** Darwin 18x3 ***
Turn = 0.
  012
0 ...
1 ...
2 .r.
3 ...
4 ..r
5 ..t
6 f..
7 r..
8 ...
9 ...
0 ...
1 ..f
2 ...
3 .h.
4 ...
5 ...
6 ...
7 ...

Turn = 3.
  012
0 ...
1 ...
2 ...
3 r..
4 r..
5 ..t
6 r..
7 r..
8 ...
9 ...
0 ...
1 ..f
2 ...
3 ..h
4 ...
5 ...
6 ...
7 ...

Turn = 6.
  012
0 ...
1 ...
2 r..
3 r..
4 ...
5 ..t
6 ...
7 ..r
8 r..
9 ...
0 ...
1 ..f
2 ...
3 ..h
4 ...
5 ...
6 ...
7 ...

*** Darwin 3x2 ***
Turn = 0.
  01
0 rf
1 ff
2 h.

Turn = 2.
  01
0 rr
1 rr
2 h.

Turn = 4.
  01
0 rr
1 rr
2 h.

Turn = 6.
  01
0 rr
1 r.
2 hr

*** Darwin 6x10 ***
Turn = 0.
  0123456789
0 ..........
1 r.........
2 ..........
3 r.........
4 ..........
5 t.........

Turn = 3.
  0123456789
0 ..........
1 ..........
2 .r........
3 ..r.......
4 ..........
5 t.........

Turn = 6.
  0123456789
0 ..........
1 ..........
2 ....r.....
3 .....r....
4 ..........
5 t.........

*** Darwin 4x1 ***
Turn = 0.
  0
0 h
1 .
2 .
3 .

Turn = 3.
  0
0 h
1 .
2 .
3 .

Turn = 6.
  0
0 h
1 .
2 .
3 .

*** Darwin 13x9 ***
Turn = 0.
  012345678
0 .........
1 ..r......
2 t..t.....
3 .........
4 .........
5 ........t
6 .........
7 ..t......
8 .........
9 ....h....
0 .........
1 .r.......
2 .........

Turn = 2.
  012345678
0 .........
1 t........
2 t..t.....
3 .........
4 .........
5 ........t
6 .........
7 ..t......
8 .........
9 ......h..
0 .........
1 ...r.....
2 .........

Turn = 4.
  012345678
0 .........
1 t........
2 t..t.....
3 .........
4 .........
5 ........t
6 .........
7 ..t......
8 .........
9 ........h
0 .........
1 .....r...
2 .........

Turn = 6.
  012345678
0 .........
1 t........
2 t..t.....
3 .........
4 .........
5 ........t
6 .........
7 ..t......
8 .........
9 ........h
0 .........
1 .......r.
2 .........

*** Darwin 11x3 ***
Turn = 0.
  012
0 ...
1 r..
2 ...
3 ...
4 .h.
5 ...
6 ..h
7 ...
8 ...
9 ..f
0 .t.

Turn = 1.
  012
0 ...
1 ...
2 r..
3 ...
4 ..h
5 ...
6 ...
7 ..h
8 ...
9 ..f
0 .t.

Turn = 2.
  012
0 ...
1 ...
2 ...
3 r..
4 ..h
5 ...
6 ...
7 ...
8 ..h
9 ..f
0 .t.

Turn = 3.
  012
0 ...
1 ...
2 ...
3 ...
4 r.h
5 ...
6 ...
7 ...
8 ..h
9 ..f
0 .t.

Turn = 4.
  012
0 ...
1 ...
2 ...
3 ...
4 ..h
5 r..
6 ...
7 ...
8 ..h
9 ..f
0 .t.

Turn = 5.
  012
0 ...
1 ...
2 ...
3 ...
4 ..h
5 ...
6 r..
7 ...
8 ..h
9 ..f
0 .t.

Turn = 6.
  012
0 ...
1 ...
2 ...
3 ...
4 ..h
5 ...
6 ...
7 r..
8 ..h
9 ..f
0 .t.

Turn = 7.
  012
0 ...
1 ...
2 ...
3 ...
4 ..h
5 ...
6 ...
7 ...
8 r.h
9 ..f
0 .t.

Turn = 8.
  012
0 ...
1 ...
2 ...
3 ...
4 ..h
5 ...
6 ...
7 ...
8 ..h
9 r.f
0 .t.

*** Darwin 11x18 ***
Turn = 0.
  012345678901234567
0 ................h.
1 ..................
2 ..................
3 ............r.....
4 ..................
5 .............t....
6 ..................
7 ..................
8 t..........t......
9 ..................
0 ..................

Turn = 3.
  012345678901234567
0 ................h.
1 ..................
2 ..................
3 ...............r..
4 ..................
5 .............t....
6 ..................
7 ..................
8 t..........t......
9 ..................
0 ..................

Turn = 6.
  012345678901234567
0 ................h.
1 ..................
2 ..................
3 .................r
4 ..................
5 .............t....
6 ..................
7 ..................
8 t..........t......
9 ..................
0 ..................

*** Darwin 17x4 ***
Turn = 0.
  0123
0 ....
1 ....
2 ....
3 t...
4 ....
5 ....
6 ....
7 ....
8 r...
9 t...
0 ....
1 ...r
2 ....
3 ....
4 ...f
5 ....
6 ....

Turn = 2.
  0123
0 ....
1 ....
2 ....
3 t...
4 ....
5 ....
6 ....
7 ....
8 ..r.
9 t...
0 ....
1 ....
2 ....
3 ...r
4 ...f
5 ....
6 ....

Turn = 4.
  0123
0 ....
1 ....
2 ....
3 t...
4 ....
5 ....
6 ....
7 ....
8 ...r
9 t...
0 ....
1 ....
2 ....
3 ....
4 ...r
5 ....
6 ...r

Turn = 6.
  0123
0 ....
1 ....
2 ....
3 t...
4 ....
5 ....
6 ....
7 ....
8 ....
9 t...
0 ...r
1 ....
2 ....
3 ....
4 ....
5 ...r
6 ...r

Turn = 8.
  0123
0 ....
1 ....
2 ....
3 t...
4 ....
5 ....
6 ....
7 ....
8 ....
9 t...
0 ....
1 ....
2 ...r
3 ....
4 ....
5 .r..
6 ..r.

*** Darwin 12x7 ***
Turn = 0.
  0123456
0 .rf.t..
1 .......
2 ....h..
3 ....t..
4 ..t....
5 ....t..
6 .......
7 .......
8 t......
9 .......
0 f......
1 .......

Turn = 2.
  0123456
0 ..f.t..
1 .......
2 .r..t..
3 ....t..
4 ..t....
5 ....t..
6 .......
7 .......
8 t......
9 .......
0 f......
1 .......

Turn = 4.
  0123456
0 ..f.t..
1 .......
2 ....t..
3 ....t..
4 .rt....
5 ....t..
6 .......
7 .......
8 t......
9 .......
0 f......
1 .......

Turn = 6.
  0123456
0 ..f.t..
1 .......
2 ....t..
3 ....t..
4 ..t....
5 ....t..
6 .r.....
7 .......
8 t......
9 .......
0 f......
1 .......

Turn = 8.
  0123456
0 ..f.t..
1 .......
2 ....t..
3 ....t..
4 ..t....
5 ....t..
6 .......
7 .......
8 tt.....
9 .......
0 f......
1 .......

*** Darwin 11x9 ***
Turn = 0.
  012345678
0 .......r.
1 .h.......
2 .........
3 ....r..h.
4 .........
5 .........
6 .........
7 ........f
8 .........
9 ...f.....
0 .........

Turn = 2.
  012345678
0 ........r
1 ...h.....
2 .........
3 ..r......
4 .........
5 .......h.
6 .........
7 ........f
8 .........
9 ...f.....
0 .........

Turn = 4.
  012345678
0 .........
1 .....h...
2 ........r
3 r........
4 .........
5 .........
6 .........
7 .......hf
8 .........
9 ...f.....
0 .........

Turn = 6.
  012345678
0 .........
1 .......h.
2 .........
3 .........
4 r.......r
5 .........
6 .........
7 ........f
8 .........
9 ...f...h.
0 .........

Turn = 8.
  012345678
0 .........
1 ........h
2 .........
3 .........
4 .........
5 .........
6 r.......r
7 ........f
8 .........
9 ...f.....
0 .......h.

*** Darwin 12x9 ***
Turn = 0.
  012345678
0 .........
1 .........
2 .......r.
3 .........
4 .........
5 .........
6 t...h....
7 ....h....
8 ..f......
9 ....f....
0 .........
1 .........

Turn = 3.
  012345678
0 .......r.
1 .........
2 .........
3 .........
4 ....h....
5 .........
6 t......h.
7 .........
8 ..f......
9 ....f....
0 .........
1 .........

Turn = 6.
  012345678
0 ........r
1 ....h....
2 .........
3 .........
4 .........
5 .........
6 t.......h
7 .........
8 ..f......
9 ....f....
0 .........
1 .........
