20

5 8
11
h 3 0 e
f 0 5 w
h 4 5 e
f 0 1 s
h 3 4 w
f 0 6 s
t 2 5 e
h 0 7 n
f 1 7 s
r 1 3 w
f 0 4 s
42 3

6 7
5
r 2 4 w
f 1 3 e
h 5 6 n
t 2 6 e
r 0 5 e
14 2

8 6
12
r 0 4 n
f 5 2 e
f 2 4 e
f 4 5 s
f 7 2 w
r 0 3 w
t 2 0 n
t 3 0 e
r 4 4 w
f 5 5 n
h 2 3 e
r 7 1 e
30 2

6 6
5
r 5 3 n
t 5 2 s
r 1 0 s
f 5 1 s
t 4 0 n
16 2

8 8
16
t 1 4 w
r 3 4 n
t 5 0 w
h 0 2 e
h 4 2 e
h 3 7 e
f 6 1 n
f 0 1 e
r 0 4 e
h 5 2 n
t 0 3 e
r 2 3 s
t 7 6 s
f 2 0 e
h 2 2 e
t 6 2 w
8 1

5 7
8
f 0 2 e
r 2 0 w
r 0 4 e
t 3 0 w
r 3 1 w
t 4 6 n
t 1 2 e
t 4 1 s
45 3

6 6
9
r 2 0 e
h 2 1 e
f 2 3 w
t 1 4 e
h 1 0 w
t 0 5 n
t 0 2 s
h 1 5 w
h 2 5 w
39 3

6 6
6
t 2 2 e
f 3 2 s
t 1 4 e
f 5 1 s
h 4 2 w
r 5 2 e
12 2

6 6
5
t 3 5 n
f 1 0 w
r 0 1 s
r 2 4 n
f 4 4 s
6 1

6 6
8
t 2 0 n
h 2 4 n
r 4 4 w
h 0 1 s
f 0 3 e
h 1 5 e
r 2 5 e
r 2 3 s
28 2

7 8
5
f 3 5 w
f 6 5 n
t 3 3 s
f 0 5 s
r 3 4 e
30 3

5 6
8
f 0 4 w
f 1 4 e
f 0 2 n
f 1 0 e
r 4 4 s
f 3 3 e
f 1 1 s
r 2 3 n
18 2

7 7
15
h 3 3 s
r 0 3 n
t 4 0 s
r 3 5 s
f 4 6 n
h 6 3 w
t 1 6 w
h 5 5 e
f 6 1 s
r 0 5 e
r 3 1 s
r 6 6 n
f 2 0 e
r 3 4 w
r 1 4 e
18 2

8 5
11
t 0 4 n
r 1 4 w
t 6 1 s
h 7 0 n
t 5 0 w
f 4 3 w
r 3 1 w
r 2 0 n
h 3 0 w
f 1 3 s
r 3 2 s
6 1

7 7
9
h 2 0 n
r 3 1 e
r 2 2 w
f 4 1 e
t 1 3 w
r 2 3 n
t 1 5 n
h 4 4 e
t 2 4 w
30 3

8 8
17
r 1 2 n
t 6 0 e
h 3 0 w
h 5 0 n
t 3 6 e
r 2 2 w
f 7 6 s
f 7 2 e
r 0 6 e
r 6 3 w
f 5 4 e
f 6 2 s
t 3 2 n
r 5 3 w
r 1 5 n
f 2 6 e
f 6 7 e
11 1

6 6
10
f 2 0 e
f 1 5 s
t 1 1 n
f 3 3 w
h 4 0 w
h 0 4 e
t 2 3 s
f 2 1 s
f 3 2 s
r 5 3 w
12 1

8 7
11
r 3 6 n
f 5 4 s
h 4 2 n
h 6 3 s
h 6 0 w
f 2 0 s
r 6 1 w
f 5 5 s
f 0 4 w
r 7 0 e
t 5 3 e
24 3

8 5
6
f 5 0 n
h 7 2 s
t 3 0 e
r 2 0 w
r 6 0 e
r 7 3 n
39 3

7 5
9
f 6 2 n
r 3 1 w
h 2 2 n
h 4 2 w
r 3 2 w
r 4 1 e
h 4 4 n
r 0 0 w
h 2 0 w
12 2
