*** Darwin 5x8 ***
Turn = 0.
  01234567
0 .f..fffh
1 ...r...f
2 .....t..
3 h...h...
4 .....h..

Turn = 3.
  01234567
0 .f..fffh
1 r......f
2 .....t..
3 ..hh....
4 .......h

Turn = 6.
  01234567
0 rf..fffh
1 .......f
2 .....t..
3 ..hh....
4 .......h

Turn = 9.
  01234567
0 r...fffh
1 .r.....f
2 .....t..
3 ..hh....
4 .......h

Turn = 12.
  01234567
0 ...rfffh
1 .......f
2 .....t..
3 ..hh....
4 .r.....h

Turn = 15.
  01234567
0 ....rrrh
1 .......f
2 .....t..
3 ..hhr...
4 r......h

Turn = 18.
  01234567
0 .....rrr
1 .....r.r
2 .....r..
3 ..hh....
4 ..rr...h

Turn = 21.
  01234567
0 ....rr..
1 .....r..
2 ..r...rr
3 ..hh....
4 .rr....h

Turn = 24.
  01234567
0 .rr.....
1 .......r
2 r.......
3 ..hh...r
4 rr....rr

Turn = 27.
  01234567
0 r.......
1 rr......
2 .r......
3 ..hhr..r
4 r.....rr

Turn = 30.
  01234567
0 rr......
1 ........
2 r..rr...
3 ..rr..r.
4 ..r.rr..

Turn = 33.
  01234567
0 ...rr...
1 ...r....
2 ..r..r..
3 rr.r....
4 r..rr...

Turn = 36.
  01234567
0 .....r..
1 r..rr...
2 r..rr...
3 .rr.....
4 r.r.....

Turn = 39.
  01234567
0 ..r.....
1 .r..r..r
2 r....r.r
3 r.r.....
4 rr......

Turn = 42.
  01234567
0 r.r.....
1 ....r.rr
2 r......r
3 rr....r.
4 .r......

*** Darwin 6x7 ***
Turn = 0.
  0123456
0 .....r.
1 ...f...
2 ....r.t
3 .......
4 .......
5 ......h

Turn = 2.
  0123456
0 ......r
1 ...f...
2 ..r...t
3 ......h
4 .......
5 .......

Turn = 4.
  0123456
0 .......
1 ...f..r
2 r.....r
3 ......r
4 .......
5 .......

Turn = 6.
  0123456
0 .......
1 r..f.r.
2 .....r.
3 ....r..
4 .......
5 .......

Turn = 8.
  0123456
0 r......
1 ...rr..
2 ...r...
3 ..r....
4 .......
5 .......

Turn = 10.
  0123456
0 ..rr...
1 .......
2 .r..r..
3 r......
4 .......
5 .......

Turn = 12.
  0123456
0 ....r..
1 ..r....
2 r......
3 .......
4 r...r..
5 .......

Turn = 14.
  0123456
0 r.....r
1 .......
2 .......
3 ..r....
4 .......
5 r...r..

*** Darwin 8x6 ***
Turn = 0.
  012345
0 ...rr.
1 ......
2 t..hf.
3 t.....
4 ....rf
5 ..f..f
6 ......
7 .rf...

Turn = 2.
  012345
0 .r...r
1 ......
2 t..hf.
3 t.....
4 ..r..f
5 ..f..f
6 ......
7 .rr...

Turn = 4.
  012345
0 r.....
1 .....r
2 t..hf.
3 t.....
4 r....f
5 ..f..f
6 ......
7 r.r...

Turn = 6.
  012345
0 ......
1 t.....
2 t..hf.
3 r....r
4 r....f
5 ..f..f
6 ......
7 rr....

Turn = 8.
  012345
0 ......
1 t.....
2 t..hf.
3 t....r
4 .r..r.
5 ..f..f
6 ......
7 r.r...

Turn = 10.
  012345
0 ......
1 t.....
2 t..hf.
3 t.....
4 ..rr.r
5 ..f..f
6 ......
7 ..r.r.

Turn = 12.
  012345
0 ......
1 t.....
2 t.rrf.
3 t..r..
4 ......
5 ..f..r
6 .....r
7 ....rr

Turn = 14.
  012345
0 ..r...
1 t.....
2 t...rr
3 t.r...
4 ......
5 ..f..r
6 ...r.r
7 ....r.

Turn = 16.
  012345
0 .r....
1 t...r.
2 t.....
3 rr....
4 .....r
5 ..f.r.
6 .r...r
7 .....r

Turn = 18.
  012345
0 r...r.
1 t.....
2 t.....
3 rr....
4 ......
5 ..rr.r
6 r..r.r
7 ......

Turn = 20.
  012345
0 .rr...
1 t.....
2 t.....
3 tt....
4 r.....
5 rr.r.r
6 .r....
7 ......

Turn = 22.
  012345
0 ......
1 trr...
2 t.....
3 rt...r
4 rr....
5 rr....
6 r.....
7 ......

Turn = 24.
  012345
0 ......
1 tt...r
2 t.....
3 rrr...
4 rr....
5 r.....
6 rr....
7 ......

Turn = 26.
  012345
0 .....r
1 tt....
2 t.....
3 rr....
4 rr....
5 rrr...
6 ......
7 .r....

Turn = 28.
  012345
0 ...r..
1 tt....
2 t.....
3 rr....
4 rr....
5 rr....
6 ......
7 r.r...

Turn = 30.
  012345
0 .r....
1 tt....
2 t.....
3 rr....
4 rr....
5 rt....
6 r.....
7 ...r..

*** Darwin 6x6 ***
Turn = 0.
  012345
0 ......
1 r.....
2 ......
3 ......
4 t.....
5 .ftr..

Turn = 2.
  012345
0 ......
1 ......
2 ......
3 r..r..
4 t.....
5 .ft...

Turn = 4.
  012345
0 ......
1 ...r..
2 ......
3 ......
4 r.....
5 rtt...

Turn = 6.
  012345
0 ...r..
1 ......
2 ......
3 ......
4 rr....
5 .tt...

Turn = 8.
  012345
0 .....r
1 ......
2 r.....
3 ......
4 ...r..
5 .tt...

Turn = 10.
  012345
0 r.....
1 .....r
2 ......
3 ......
4 .....r
5 .tt...

Turn = 12.
  012345
0 .r....
1 ......
2 ......
3 .....r
4 .....r
5 .tt...

Turn = 14.
  012345
0 ...r..
1 ......
2 ......
3 ....r.
4 ...r..
5 .tt...

Turn = 16.
  012345
0 .....r
1 ......
2 ......
3 ..r...
4 .r....
5 .tt...

*** Darwin 8x8 ***
Turn = 0.
  01234567
0 .fhtr...
1 ....t...
2 f.hr....
3 ....r..h
4 ..h.....
5 t.h.....
6 .ft.....
7 ......t.

Turn = 1.
  01234567
0 .fhtt...
1 ....t...
2 f.h.r...
3 ...r...h
4 ..hh....
5 t.......
6 .tt.....
7 ......t.

Turn = 2.
  01234567
0 .fhtt...
1 ....t...
2 f..ht...
3 ..hr...h
4 ....r...
5 t.......
6 .tt.....
7 ......t.

Turn = 3.
  01234567
0 .fhtt...
1 ....t...
2 f.htt...
3 .......h
4 ...r.r..
5 t.......
6 .tt.....
7 ......t.

Turn = 4.
  01234567
0 .fttt...
1 ..h.t...
2 f..tt...
3 .......h
4 ......r.
5 t..r....
6 .tt.....
7 ......t.

Turn = 5.
  01234567
0 .fttt...
1 ..h.t...
2 f..tt...
3 .......h
4 .......r
5 t.......
6 .ttr....
7 ......t.

Turn = 6.
  01234567
0 .fttt...
1 ..h.t...
2 f..tt...
3 .......h
4 .......r
5 t.......
6 .tt.....
7 ...r..t.

Turn = 7.
  01234567
0 .tttt...
1 ..h.t...
2 f..tt...
3 .......h
4 ........
5 t......r
6 .tt.....
7 ...r..t.

Turn = 8.
  01234567
0 .tttt...
1 ..h.t...
2 f..tt...
3 .......h
4 ........
5 t.......
6 .tt....r
7 ....r.t.

*** Darwin 5x7 ***
Turn = 0.
  0123456
0 ..f.r..
1 ..t....
2 r......
3 tr.....
4 .t....t

Turn = 3.
  0123456
0 r.t...r
1 ..t....
2 .......
3 r......
4 rt....t

Turn = 6.
  0123456
0 rrr...r
1 ..t....
2 .......
3 .......
4 tt....t

Turn = 9.
  0123456
0 r....rr
1 .tt....
2 .......
3 .......
4 tt....t

Turn = 12.
  0123456
0 .....r.
1 .tt...r
2 r......
3 .......
4 tt....t

Turn = 15.
  0123456
0 .......
1 .tt....
2 .......
3 r....rr
4 rr....r

Turn = 18.
  0123456
0 .......
1 rtt....
2 ......r
3 ...rr..
4 r.....r

Turn = 21.
  0123456
0 r.....r
1 .ttrr..
2 .......
3 r......
4 ......r

Turn = 24.
  0123456
0 rttr..r
1 .tt....
2 .......
3 .......
4 ....r..

Turn = 27.
  0123456
0 rrttr..
1 .tt....
2 .......
3 .......
4 .r.....

Turn = 30.
  0123456
0 rttr...
1 .r.rr..
2 .......
3 r......
4 .......

Turn = 33.
  0123456
0 .tt...r
1 r.tt...
2 r......
3 .......
4 ....r..

Turn = 36.
  0123456
0 rtt....
1 r.tt...
2 ......r
3 .......
4 ......r

Turn = 39.
  0123456
0 r.t....
1 .rtt...
2 .......
3 .....r.
4 r....r.

Turn = 42.
  0123456
0 ..t....
1 ..tt...
2 r......
3 .rr....
4 ..rr...

Turn = 45.
  0123456
0 ..t....
1 ..tr...
2 ...r...
3 ...r...
4 rr.r...

*** Darwin 6x6 ***
Turn = 0.
  012345
0 ..t..t
1 h...th
2 rh.f.h
3 ......
4 ......
5 ......

Turn = 3.
  012345
0 ..t..t
1 h...tt
2 .rrr..
3 ......
4 ...r..
5 ......

Turn = 6.
  012345
0 ..t..t
1 h...tt
2 ......
3 ......
4 ..rr..
5 .rr...

Turn = 9.
  012345
0 ..t..t
1 h...tt
2 ......
3 ..r...
4 r.....
5 .r.r..

Turn = 12.
  012345
0 ..r..t
1 h.r.tt
2 ......
3 ...r..
4 ......
5 r.r...

Turn = 15.
  012345
0 ...rtt
1 rr..tt
2 ......
3 ......
4 ......
5 ...r.r

Turn = 18.
  012345
0 rr..tt
1 ....tt
2 ......
3 .r....
4 ......
5 ....rr

Turn = 21.
  012345
0 rr..tt
1 ....tt
2 ......
3 ......
4 ......
5 .r.r.r

Turn = 24.
  012345
0 ..r.tt
1 ....tt
2 ......
3 .r....
4 r.....
5 r...r.

Turn = 27.
  012345
0 ...rtt
1 r...tt
2 ......
3 ......
4 ......
5 rrr...

Turn = 30.
  012345
0 r..r.t
1 ..r.rt
2 ..r...
3 .r....
4 r.....
5 ......

Turn = 33.
  012345
0 .rr.rt
1 r....t
2 r.....
3 r.....
4 ....r.
5 ......

Turn = 36.
  012345
0 rr..rr
1 r..r.r
2 ...r..
3 ......
4 ......
5 .....r

Turn = 39.
  012345
0 r..rr.
1 r.rr.r
2 .....r
3 .....r
4 ......
5 ......

*** Darwin 6x6 ***
Turn = 0.
  012345
0 ......
1 ....t.
2 ..t...
3 ..f...
4 ..h...
5 .fr...

Turn = 2.
  012345
0 ......
1 ....t.
2 ..t...
3 ..f...
4 h.....
5 .f..r.

Turn = 4.
  012345
0 ......
1 ....t.
2 ..t...
3 ..t...
4 h.....
5 .f...r

Turn = 6.
  012345
0 ......
1 ....t.
2 ..t...
3 ..t...
4 h.....
5 .f...r

Turn = 8.
  012345
0 ......
1 ....t.
2 ..t...
3 ..t...
4 h.....
5 .f..r.

Turn = 10.
  012345
0 ......
1 ....t.
2 ..t...
3 ..t...
4 h.....
5 .fr...

Turn = 12.
  012345
0 ......
1 ....t.
2 ..t...
3 ..t...
4 h.....
5 rr....

*** Darwin 6x6 ***
Turn = 0.
  012345
0 .r....
1 f.....
2 ....r.
3 .....t
4 ....f.
5 ......

Turn = 1.
  012345
0 ......
1 fr..r.
2 ......
3 .....t
4 ....f.
5 ......

Turn = 2.
  012345
0 ....r.
1 f.....
2 .r....
3 .....t
4 ....f.
5 ......

Turn = 3.
  012345
0 ....r.
1 f.....
2 ......
3 .r...t
4 ....f.
5 ......

Turn = 4.
  012345
0 .....r
1 f.....
2 ......
3 .....t
4 .r..f.
5 ......

Turn = 5.
  012345
0 .....r
1 f.....
2 ......
3 .....t
4 ....f.
5 .r....

Turn = 6.
  012345
0 .....r
1 f.....
2 ......
3 .....t
4 ....f.
5 .r....

*** Darwin 6x6 ***
Turn = 0.
  012345
0 .h.f..
1 .....h
2 t..rhr
3 ......
4 ....r.
5 ......

Turn = 2.
  012345
0 ...fh.
1 .....h
2 th....
3 ...r.r
4 ..r...
5 ......

Turn = 4.
  012345
0 ...fh.
1 .....h
2 t.....
3 .h...r
4 r.....
5 .....r

Turn = 6.
  012345
0 ...fh.
1 .....h
2 t.....
3 r.....
4 .....r
5 .h..r.

Turn = 8.
  012345
0 ...fh.
1 .....h
2 t.....
3 t.....
4 ......
5 .hr..r

Turn = 10.
  012345
0 ...fh.
1 .....h
2 t.....
3 t.....
4 ......
5 .rrr..

Turn = 12.
  012345
0 ...fh.
1 .....h
2 t.....
3 t.....
4 ......
5 .rrr..

Turn = 14.
  012345
0 ...fh.
1 .....h
2 t.....
3 t.....
4 ......
5 rr.r..

Turn = 16.
  012345
0 ...fh.
1 .....h
2 t.....
3 t.....
4 ......
5 rr...r

Turn = 18.
  012345
0 ...fh.
1 .....h
2 t.....
3 t.....
4 ......
5 r..r.r

Turn = 20.
  012345
0 ...fh.
1 .....h
2 t.....
3 t.....
4 ......
5 .r..rr

Turn = 22.
  012345
0 ...fh.
1 .....h
2 t.....
3 t.....
4 ......
5 ...rrr

Turn = 24.
  012345
0 ...fh.
1 .....h
2 t.....
3 t.....
4 ......
5 ...rrr

Turn = 26.
  012345
0 ...fh.
1 .....h
2 t.....
3 t...r.
4 ......
5 ...r.r

Turn = 28.
  012345
0 ...fh.
1 ....rh
2 t.....
3 t.....
4 ......
5 .r.r..

*** Darwin 7x8 ***
Turn = 0.
  01234567
0 .....f..
1 ........
2 ........
3 ...trf..
4 ........
5 ........
6 .....f..

Turn = 3.
  01234567
0 .....f..
1 ........
2 ........
3 ...ttt..
4 ........
5 ........
6 .....f..

Turn = 6.
  01234567
0 .....f..
1 ........
2 ........
3 ...ttt..
4 ........
5 ........
6 .....f..

Turn = 9.
  01234567
0 .....f..
1 ........
2 ........
3 ...ttt..
4 ........
5 ........
6 .....f..

Turn = 12.
  01234567
0 .....f..
1 ........
2 ........
3 ...ttt..
4 ........
5 ........
6 .....f..

Turn = 15.
  01234567
0 .....f..
1 ........
2 ........
3 ...ttt..
4 ........
5 ........
6 .....f..

Turn = 18.
  01234567
0 .....f..
1 ........
2 ........
3 ...ttt..
4 ........
5 ........
6 .....f..

Turn = 21.
  01234567
0 .....f..
1 ........
2 ........
3 ...ttt..
4 ........
5 ........
6 .....f..

Turn = 24.
  01234567
0 .....f..
1 ........
2 ........
3 ...ttt..
4 ........
5 ........
6 .....f..

Turn = 27.
  01234567
0 .....f..
1 ........
2 ........
3 ...ttt..
4 ........
5 ........
6 .....f..

Turn = 30.
  01234567
0 .....f..
1 ........
2 ........
3 ...ttt..
4 ........
5 ........
6 .....f..

*** Darwin 5x6 ***
Turn = 0.
  012345
0 ..f.f.
1 ff..f.
2 ...r..
3 ...f..
4 ....r.

Turn = 2.
  012345
0 ..frf.
1 ff..f.
2 ......
3 ...f..
4 ...r..

Turn = 4.
  012345
0 ..rrf.
1 ff..f.
2 ......
3 ...f..
4 .r....

Turn = 6.
  012345
0 ..rrf.
1 ff..f.
2 ......
3 ...f..
4 r.....

Turn = 8.
  012345
0 ....rr
1 ff..f.
2 ..r...
3 ...f..
4 .r....

Turn = 10.
  012345
0 ....r.
1 ff..r.
2 .....r
3 ..rf..
4 ...r..

Turn = 12.
  012345
0 .....r
1 ffr...
2 ......
3 r..f..
4 ....rr

Turn = 14.
  012345
0 ......
1 frr..r
2 ......
3 ...f..
4 r...rr

Turn = 16.
  012345
0 .r....
1 f.....
2 .....r
3 ..rf.r
4 r..r..

Turn = 18.
  012345
0 r.....
1 f.....
2 r.....
3 ...rrr
4 ..rr..

*** Darwin 7x7 ***
Turn = 0.
  0123456
0 ...r.r.
1 ....r.t
2 f......
3 .r.hrr.
4 t.....f
5 .....h.
6 .f.h..r

Turn = 2.
  0123456
0 ....r.r
1 .....tt
2 f......
3 ..r....
4 tt....f
5 ...h.rr
6 .fh...r

Turn = 4.
  0123456
0 .....tt
1 .....tt
2 f......
3 t......
4 tt....f
5 .....rr
6 .fhh.r.

Turn = 6.
  0123456
0 .....tt
1 .....tt
2 f......
3 t......
4 tt...rr
5 ...r...
6 .fhh..r

Turn = 8.
  0123456
0 .....tt
1 .....tt
2 t.....r
3 t......
4 tt.r...
5 .r.....
6 .fhh.r.

Turn = 10.
  0123456
0 .....tt
1 .....rr
2 t.....r
3 t......
4 trr....
5 r......
6 .fhrr..

Turn = 12.
  0123456
0 .....tt
1 .....tt
2 t...r..
3 t.r....
4 t......
5 tr.....
6 .fhrr..

Turn = 14.
  0123456
0 .....tt
1 ..r..tt
2 t.r....
3 t......
4 t..r...
5 tt.....
6 .tt...r

Turn = 16.
  0123456
0 ..r..tt
1 .....tt
2 rr.r...
3 t......
4 t......
5 tt.....
6 .tt...r

Turn = 18.
  0123456
0 r..r.tt
1 .....tt
2 t......
3 tr.....
4 t......
5 tt.....
6 .tt.r..

*** Darwin 8x5 ***
Turn = 0.
  01234
0 ....t
1 ...fr
2 r....
3 hrr..
4 ...f.
5 t....
6 .t...
7 h....

Turn = 1.
  01234
0 ....t
1 r..rr
2 .....
3 rr...
4 ..rf.
5 t....
6 ht...
7 .....

Turn = 2.
  01234
0 r...t
1 ...rr
2 .....
3 rr...
4 ...f.
5 t.r..
6 tt...
7 .....

Turn = 3.
  01234
0 r...t
1 ....t
2 rr.r.
3 .....
4 ...f.
5 t....
6 ttr..
7 .....

Turn = 4.
  01234
0 .r..t
1 rr..t
2 .....
3 ...r.
4 ...f.
5 t....
6 tt...
7 ..r..

Turn = 5.
  01234
0 rrr.t
1 ....t
2 .....
3 ...r.
4 ..r..
5 t....
6 tt...
7 ..r..

Turn = 6.
  01234
0 rr.rt
1 ....t
2 .....
3 .....
4 .r.r.
5 t....
6 tt...
7 .r...

*** Darwin 7x7 ***
Turn = 0.
  0123456
0 .......
1 ...t.t.
2 h.rrt..
3 .r.....
4 .f..h..
5 .......
6 .......

Turn = 3.
  0123456
0 h......
1 ...r.t.
2 r..rr..
3 ....r..
4 .f....h
5 .......
6 .......

Turn = 6.
  0123456
0 h...r..
1 .r...t.
2 .......
3 ......r
4 .f.r..h
5 r......
6 .......

Turn = 9.
  0123456
0 h.....r
1 .....tr
2 r......
3 .......
4 .f....h
5 .......
6 r..r...

Turn = 12.
  0123456
0 h...r..
1 ....r..
2 .......
3 .....r.
4 rf....h
5 .r.....
6 ......r

Turn = 15.
  0123456
0 hr.....
1 .r.....
2 .......
3 .......
4 ..r.r.r
5 ....r.r
6 .....r.

Turn = 18.
  0123456
0 r......
1 rr.....
2 ......r
3 .......
4 ....rr.
5 .....rr
6 ......r

Turn = 21.
  0123456
0 r.....r
1 .......
2 .......
3 r......
4 .rr....
5 ......r
6 ....rrr

Turn = 24.
  0123456
0 ...r..r
1 .......
2 .......
3 .......
4 r...r..
5 ....r..
6 rr..r.r

Turn = 27.
  0123456
0 ......r
1 ....r..
2 .......
3 ......r
4 ......r
5 rrrr...
6 r......

Turn = 30.
  0123456
0 ...r...
1 .......
2 r.rr..r
3 ....r..
4 r..r...
5 .......
6 r......

*** Darwin 8x8 ***
Turn = 0.
  01234567
0 ......r.
1 ..r..r..
2 ..r...f.
3 h.t...t.
4 ........
5 h..rf...
6 t.fr...f
7 ..f...f.

Turn = 1.
  01234567
0 ..r..r.r
1 ........
2 .r....f.
3 h.t...t.
4 h.......
5 ..r.f...
6 t.rr...f
7 ..f...f.

Turn = 2.
  01234567
0 ..r..r.r
1 ........
2 r.....t.
3 h.t...t.
4 h.......
5 .r..f...
6 t.rr...f
7 ..f...f.

Turn = 3.
  01234567
0 ...rr...
1 .......r
2 r.....t.
3 h.t...t.
4 h.......
5 r..rf...
6 t.r....f
7 .r....f.

Turn = 4.
  01234567
0 ...rr...
1 r.......
2 ......tr
3 h.t...t.
4 h..r....
5 r...f...
6 t......f
7 r.r...f.

Turn = 5.
  01234567
0 r..r....
1 ....r...
2 ......tt
3 h.tr..t.
4 r.......
5 r...f...
6 t......f
7 r.r...f.

Turn = 6.
  01234567
0 r...r...
1 ........
2 ...rr.tt
3 r.t...t.
4 r.......
5 t...f...
6 t......f
7 rr....f.

Turn = 7.
  01234567
0 r....r..
1 ...r....
2 ......tt
3 r.t.r.t.
4 r.......
5 t...f...
6 t......f
7 rr....f.

Turn = 8.
  01234567
0 ...r..r.
1 r.......
2 ......tt
3 r.t...t.
4 t...r...
5 t...f...
6 t......f
7 rr....f.

Turn = 9.
  01234567
0 ...r...r
1 ........
2 r.....tt
3 r.t...t.
4 t...r...
5 t....r..
6 t......f
7 rr....f.

Turn = 10.
  01234567
0 ..r....r
1 ........
2 r.....tt
3 r.t...t.
4 .r......
5 t...r.r.
6 t......f
7 rr....f.

Turn = 11.
  01234567
0 .r.....r
1 ........
2 r.....tt
3 ..t...t.
4 r.r.....
5 t......r
6 t...r..f
7 tt....f.

*** Darwin 6x6 ***
Turn = 0.
  012345
0 ....h.
1 .t...f
2 ff.t..
3 ..ff..
4 h.....
5 ...r..

Turn = 1.
  012345
0 .....h
1 .t...f
2 ff.t..
3 ..tt..
4 h.....
5 ..r...

Turn = 2.
  012345
0 .....h
1 .t...f
2 ff.t..
3 ..tt..
4 h.....
5 .r....

Turn = 3.
  012345
0 .....h
1 .t...f
2 ft.t..
3 ..tt..
4 h.....
5 r.....

Turn = 4.
  012345
0 .....h
1 .t...f
2 tt.t..
3 ..tt..
4 h.....
5 r.....

Turn = 5.
  012345
0 .....h
1 .t...f
2 tt.t..
3 ..tt..
4 r.....
5 r.....

Turn = 6.
  012345
0 .....h
1 .t...f
2 tt.t..
3 ..tt..
4 r.....
5 r.....

Turn = 7.
  012345
0 .....h
1 .t...f
2 tt.t..
3 ..tt..
4 r.....
5 .r....

Turn = 8.
  012345
0 .....h
1 .t...f
2 tt.t..
3 ..tt..
4 r.....
5 ..r...

Turn = 9.
  012345
0 .....h
1 .t...f
2 tt.t..
3 r.tt..
4 ......
5 ...r..

Turn = 10.
  012345
0 .....h
1 .t...f
2 rt.t..
3 r.tt..
4 ......
5 ....r.

Turn = 11.
  012345
0 .....h
1 .t...f
2 rt.t..
3 r.tt..
4 ......
5 .....r

Turn = 12.
  012345
0 .....h
1 rt...f
2 .t.t..
3 r.tt..
4 ......
5 .....r

*** Darwin 8x7 ***
Turn = 0.
  0123456
0 ....f..
1 .......
2 f......
3 ......r
4 ..h....
5 ...tff.
6 hr.h...
7 r......

Turn = 3.
  0123456
0 ....f.r
1 ..h....
2 f......
3 .......
4 .......
5 r..ttt.
6 .......
7 .rrr...

Turn = 6.
  0123456
0 ..h.f.r
1 .......
2 r......
3 r......
4 .......
5 ...ttt.
6 .......
7 rrr....

Turn = 9.
  0123456
0 r.hrr..
1 r......
2 .......
3 .......
4 r......
5 ...ttt.
6 .r.....
7 r......

Turn = 12.
  0123456
0 .rr....
1 ...r...
2 r...r..
3 .r.....
4 .r.....
5 ...ttt.
6 .......
7 ...r...

Turn = 15.
  0123456
0 ....r..
1 .......
2 .r.r...
3 r......
4 ..rtrr.
5 ...tr..
6 .......
7 ......r

Turn = 18.
  0123456
0 r.....r
1 .......
2 ......r
3 ....t..
4 ...tt..
5 .r.t..r
6 ......r
7 ..r....

Turn = 21.
  0123456
0 r......
1 .....r.
2 .......
3 ....t..
4 ...tt.r
5 ...t..r
6 ..r....
7 .r....r

Turn = 24.
  0123456
0 r......
1 ..r....
2 .......
3 ..r.t.r
4 ...tt..
5 ...rr..
6 r......
7 ......r

*** Darwin 8x5 ***
Turn = 0.
  01234
0 .....
1 .....
2 r....
3 t....
4 .....
5 f....
6 r....
7 ..hr.

Turn = 3.
  01234
0 r....
1 .....
2 .....
3 t....
4 ...r.
5 f....
6 ...r.
7 ..h..

Turn = 6.
  01234
0 r....
1 ...r.
2 .....
3 t....
4 .....
5 f....
6 .....
7 ..h.r

Turn = 9.
  01234
0 ..rr.
1 .....
2 .....
3 t....
4 .....
5 f....
6 .....
7 ..rr.

Turn = 12.
  01234
0 ...r.
1 ..r..
2 .....
3 t....
4 .....
5 f....
6 .....
7 r...r

Turn = 15.
  01234
0 r....
1 .....
2 .....
3 t....
4 ..r..
5 f...r
6 .....
7 .r...

Turn = 18.
  01234
0 r....
1 .....
2 ....r
3 t....
4 .....
5 f....
6 .....
7 ..r.r

Turn = 21.
  01234
0 ..r.r
1 .....
2 .....
3 t....
4 .....
5 f...r
6 .....
7 ....r

Turn = 24.
  01234
0 ....r
1 ...r.
2 ....r
3 t....
4 .....
5 f....
6 .....
7 ....r

Turn = 27.
  01234
0 ....r
1 ....r
2 .....
3 t....
4 ...rr
5 f....
6 .....
7 .....

Turn = 30.
  01234
0 ....r
1 .....
2 ...r.
3 t...r
4 .....
5 f....
6 .....
7 ...r.

Turn = 33.
  01234
0 .....
1 ....r
2 r..r.
3 t....
4 .....
5 f....
6 .....
7 .r...

Turn = 36.
  01234
0 .....
1 .....
2 tt...
3 t....
4 ....r
5 f....
6 r....
7 .....

Turn = 39.
  01234
0 .....
1 .....
2 tt...
3 t....
4 .....
5 r....
6 .r...
7 ....r

*** Darwin 7x5 ***
Turn = 0.
  01234
0 r....
1 .....
2 h.h..
3 .rr..
4 .rh.h
5 .....
6 ..f..

Turn = 2.
  01234
0 r.h..
1 .....
2 h...h
3 rr...
4 .r...
5 ..r..
6 ..f..

Turn = 4.
  01234
0 .rr.h
1 .r...
2 r....
3 r....
4 .....
5 ..r..
6 .r.r.

Turn = 6.
  01234
0 rr..h
1 .rr..
2 .....
3 ..r..
4 .....
5 ....r
6 r...r

Turn = 8.
  01234
0 rr.rh
1 .....
2 .....
3 ..r.r
4 ....r
5 r....
6 ...r.

Turn = 10.
  01234
0 r.rrr
1 .....
2 ....r
3 r....
4 ....r
5 ..r..
6 .r...

Turn = 12.
  01234
0 r....
1 r...r
2 ..rrr
3 ....r
4 .....
5 .....
6 r.r..
