25

8 15
5
t 1 0 w
t 2 9 e
r 1 1 n
f 4 0 n
t 7 13 e
8 6

14 14
9
r 0 3 e
h 8 0 w
t 10 0 e
f 7 4 e
h 2 7 e
f 0 13 s
h 1 9 s
f 3 11 w
h 9 8 e
15 1

12 8
5
f 6 6 w
r 2 1 e
t 3 3 e
t 1 0 n
r 0 1 s
9 2

13 12
8
r 3 3 n
r 11 11 e
f 2 5 s
r 9 10 s
r 1 4 w
f 8 5 w
h 1 1 n
r 2 7 s
15 9

10 12
8
t 9 1 n
h 8 10 s
h 4 1 n
r 2 7 e
h 5 2 n
h 6 4 w
h 2 7 e
t 9 0 s
3 2

15 11
9
f 4 1 s
h 3 7 w
h 4 8 e
t 10 10 e
f 10 10 e
t 2 6 n
h 1 4 s
h 0 7 e
f 3 9 w
5 3

15 11
10
h 0 10 n
f 14 8 e
f 8 7 e
h 4 3 w
r 12 1 e
r 1 0 s
f 5 3 w
h 1 2 e
t 5 7 e
t 1 9 s
5 4

11 11
5
t 5 1 s
t 0 4 e
h 2 9 e
r 9 4 w
r 6 4 n
8 4

9 10
9
f 1 9 n
h 3 8 w
t 1 7 w
f 7 7 w
h 6 5 w
t 4 1 n
r 0 1 n
r 4 1 n
f 5 5 e
12 11

8 13
8
h 6 8 n
t 1 5 w
r 0 3 e
f 2 10 w
t 2 4 w
r 0 0 e
t 7 12 n
r 6 5 e
6 3

8 8
7
r 4 6 w
t 6 3 w
f 5 2 w
t 0 0 e
r 3 0 e
f 6 4 e
f 2 6 w
11 8

14 9
2
t 4 2 w
r 3 7 w
11 10

15 13
2
t 4 11 w
t 13 1 e
18 3

11 12
11
t 5 1 e
h 4 0 w
r 5 5 e
r 0 8 e
t 10 9 s
h 2 1 n
r 8 10 e
t 3 10 e
t 5 6 s
t 7 5 s
t 1 11 s
6 4

14 13
4
t 4 8 e
t 7 11 w
f 9 4 n
f 12 0 w
6 4

14 8
7
r 8 3 w
t 7 7 w
r 4 5 e
f 1 4 w
t 4 6 n
f 10 3 s
t 10 0 w
10 3

12 8
8
t 9 5 w
h 5 1 n
h 2 7 w
r 7 0 n
r 3 6 s
f 7 7 s
r 3 2 w
f 10 6 n
10 6

10 9
6
r 0 1 e
t 5 2 n
f 6 6 w
t 5 7 w
t 1 6 n
f 9 2 e
2 1

12 12
10
h 3 11 e
h 10 7 w
t 7 8 e
h 4 6 n
h 1 11 e
h 2 11 e
h 8 4 n
h 3 2 s
h 10 9 n
h 11 1 n
4 3

10 9
7
f 8 3 n
r 4 0 w
r 8 2 w
r 2 8 n
f 6 1 w
h 8 7 e
t 0 8 s
15 5

11 8
7
h 4 4 w
t 9 5 s
t 7 3 s
f 9 1 s
t 10 5 s
t 8 4 e
r 2 2 s
5 2

11 12
5
r 4 5 w
f 8 5 w
r 4 4 n
f 7 1 w
h 5 6 w
8 3

11 13
3
h 3 1 e
f 3 3 s
h 4 2 w
12 2

10 8
6
r 1 2 w
f 0 3 w
t 3 7 w
t 8 6 w
r 2 5 w
h 4 5 e
7 3

11 8
2
h 8 2 s
t 1 3 n
13 5
