*** Darwin 20x11 ***
Turn = 0.
  01234567890
0 ...........
1 .....r.f...
2 ...........
3 ...........
4 ....r......
5 ...........
6 .h.........
7 ...........
8 ...........
9 ...........
0 ...........
1 ...........
2 ...........
3 ...........
4 ...........
5 ..........f
6 ...........
7 ...........
8 ..hf.......
9 ...........

Turn = 2.
  01234567890
0 ...........
1 ......r.r..
2 ...........
3 ...........
4 ...........
5 ...........
6 ...hr......
7 ...........
8 ...........
9 ...........
0 ...........
1 ...........
2 ...........
3 ...........
4 ...........
5 ..........f
6 ...........
7 ...........
8 ..hf.......
9 ...........

Turn = 4.
  01234567890
0 ...........
1 ........r.r
2 ...........
3 ...........
4 ...........
5 ...........
6 ....h......
7 ...........
8 ....r......
9 ...........
0 ...........
1 ...........
2 ...........
3 ...........
4 ...........
5 ..........f
6 ...........
7 ...........
8 ..hf.......
9 ...........

Turn = 6.
  01234567890
0 ...........
1 .........r.
2 ..........r
3 ...........
4 ...........
5 ...........
6 ......h....
7 ...........
8 ...........
9 ...........
0 ....r......
1 ...........
2 ...........
3 ...........
4 ...........
5 ..........f
6 ...........
7 ...........
8 ..hf.......
9 ...........

Turn = 8.
  01234567890
0 .........r.
1 ...........
2 ...........
3 ...........
4 ..........r
5 ...........
6 ........h..
7 ...........
8 ...........
9 ...........
0 ...........
1 ...........
2 ....r......
3 ...........
4 ...........
5 ..........f
6 ...........
7 ...........
8 ..hf.......
9 ...........

Turn = 10.
  01234567890
0 ..........r
1 ...........
2 ...........
3 ...........
4 ...........
5 ...........
6 .........hr
7 ...........
8 ...........
9 ...........
0 ...........
1 ...........
2 ...........
3 ...........
4 ....r......
5 ..........f
6 ...........
7 ...........
8 ..hf.......
9 ...........

Turn = 12.
  01234567890
0 ...........
1 ...........
2 ..........r
3 ...........
4 ...........
5 ...........
6 ..........h
7 ...........
8 ..........r
9 ...........
0 ...........
1 ...........
2 ...........
3 ...........
4 ...........
5 ..........f
6 ....r......
7 ...........
8 ..hf.......
9 ...........

Turn = 14.
  01234567890
0 ...........
1 ...........
2 ...........
3 ...........
4 ..........r
5 ...........
6 ..........h
7 ...........
8 ...........
9 ...........
0 ..........r
1 ...........
2 ...........
3 ...........
4 ...........
5 ..........f
6 ...........
7 ...........
8 ..hfr......
9 ...........

Turn = 16.
  01234567890
0 ...........
1 ...........
2 ...........
3 ...........
4 ...........
5 ..........r
6 ..........r
7 ...........
8 ...........
9 ...........
0 ...........
1 ...........
2 ..........r
3 ...........
4 ...........
5 ..........f
6 ...........
7 ...........
8 ..hf.......
9 ....r......

*** Darwin 3x19 ***
Turn = 0.
  0123456789012345678
0 ....r...h..........
1 ...................
2 ............t...h..

Turn = 2.
  0123456789012345678
0 ......rh...........
1 ...................
2 ............t.h....

Turn = 4.
  0123456789012345678
0 ......rr...........
1 ...................
2 ............tt.....

Turn = 6.
  0123456789012345678
0 .......r.r.........
1 ...................
2 ............tt.....

Turn = 8.
  0123456789012345678
0 .........r.r.......
1 ...................
2 ............tt.....

*** Darwin 17x17 ***
Turn = 0.
  01234567890123456
0 .................
1 .h...............
2 .................
3 .................
4 .................
5 .................
6 .................
7 .................
8 .................
9 ..f..............
0 .....r...........
1 ....h............
2 ........h........
3 ...h.............
4 .................
5 .................
6 .................

Turn = 1.
  01234567890123456
0 .................
1 h................
2 .................
3 .................
4 .................
5 .................
6 .................
7 .................
8 .................
9 ..f..............
0 .................
1 ....hr...........
2 .......h.........
3 ....h............
4 .................
5 .................
6 .................

Turn = 2.
  01234567890123456
0 .................
1 h................
2 .................
3 .................
4 .................
5 .................
6 .................
7 .................
8 .................
9 ..f..............
0 .................
1 ....h............
2 .....rh..........
3 .....h...........
4 .................
5 .................
6 .................

Turn = 3.
  01234567890123456
0 .................
1 h................
2 .................
3 .................
4 .................
5 .................
6 .................
7 .................
8 .................
9 ..f..............
0 .................
1 .....h...........
2 .....rh..........
3 ......r..........
4 .................
5 .................
6 .................

Turn = 4.
  01234567890123456
0 .................
1 h................
2 .................
3 .................
4 .................
5 .................
6 .................
7 .................
8 .................
9 ..f..............
0 .................
1 ......h..........
2 .....h...........
3 .....r.r.........
4 .................
5 .................
6 .................

Turn = 5.
  01234567890123456
0 .................
1 h................
2 .................
3 .................
4 .................
5 .................
6 .................
7 .................
8 .................
9 ..f..............
0 .................
1 .......h.........
2 ....h............
3 ........r........
4 .....r...........
5 .................
6 .................

Turn = 6.
  01234567890123456
0 .................
1 h................
2 .................
3 .................
4 .................
5 .................
6 .................
7 .................
8 .................
9 ..f..............
0 .................
1 ........h........
2 ...h.............
3 .........r.......
4 .................
5 .....r...........
6 .................

Turn = 7.
  01234567890123456
0 .................
1 h................
2 .................
3 .................
4 .................
5 .................
6 .................
7 .................
8 .................
9 ..f..............
0 .................
1 .........h.......
2 ..h..............
3 ..........r......
4 .................
5 .................
6 .....r...........

Turn = 8.
  01234567890123456
0 .................
1 h................
2 .................
3 .................
4 .................
5 .................
6 .................
7 .................
8 .................
9 ..f..............
0 .................
1 ..........h......
2 .h...............
3 ...........r.....
4 .................
5 .................
6 .....r...........

Turn = 9.
  01234567890123456
0 .................
1 h................
2 .................
3 .................
4 .................
5 .................
6 .................
7 .................
8 .................
9 ..f..............
0 .................
1 ...........h.....
2 h................
3 ............r....
4 .................
5 .................
6 ....r............

Turn = 10.
  01234567890123456
0 .................
1 h................
2 .................
3 .................
4 .................
5 .................
6 .................
7 .................
8 .................
9 ..f..............
0 .................
1 ............h....
2 h................
3 .............r...
4 .................
5 .................
6 ...r.............

Turn = 11.
  01234567890123456
0 .................
1 h................
2 .................
3 .................
4 .................
5 .................
6 .................
7 .................
8 .................
9 ..f..............
0 .................
1 .............h...
2 h................
3 ..............r..
4 .................
5 .................
6 ..r..............

Turn = 12.
  01234567890123456
0 .................
1 h................
2 .................
3 .................
4 .................
5 .................
6 .................
7 .................
8 .................
9 ..f..............
0 .................
1 ..............h..
2 h................
3 ...............r.
4 .................
5 .................
6 .r...............

Turn = 13.
  01234567890123456
0 .................
1 h................
2 .................
3 .................
4 .................
5 .................
6 .................
7 .................
8 .................
9 ..f..............
0 .................
1 ...............h.
2 h................
3 ................r
4 .................
5 .................
6 r................

Turn = 14.
  01234567890123456
0 .................
1 h................
2 .................
3 .................
4 .................
5 .................
6 .................
7 .................
8 .................
9 ..f..............
0 .................
1 ................h
2 h................
3 ................r
4 .................
5 .................
6 r................

Turn = 15.
  01234567890123456
0 .................
1 h................
2 .................
3 .................
4 .................
5 .................
6 .................
7 .................
8 .................
9 ..f..............
0 .................
1 ................h
2 h...............r
3 .................
4 .................
5 r................
6 .................

Turn = 16.
  01234567890123456
0 .................
1 h................
2 .................
3 .................
4 .................
5 .................
6 .................
7 .................
8 .................
9 ..f..............
0 .................
1 ................r
2 h...............r
3 .................
4 r................
5 .................
6 .................

Turn = 17.
  01234567890123456
0 .................
1 h................
2 .................
3 .................
4 .................
5 .................
6 .................
7 .................
8 .................
9 ..f..............
0 .................
1 ................r
2 h...............r
3 r................
4 .................
5 .................
6 .................

Turn = 18.
  01234567890123456
0 .................
1 h................
2 .................
3 .................
4 .................
5 .................
6 .................
7 .................
8 .................
9 ..f..............
0 .................
1 ................r
2 r...............r
3 r................
4 .................
5 .................
6 .................

Turn = 19.
  01234567890123456
0 .................
1 h................
2 .................
3 .................
4 .................
5 .................
6 .................
7 .................
8 .................
9 ..f..............
0 .................
1 ...............rr
2 r................
3 r................
4 .................
5 .................
6 .................

Turn = 20.
  01234567890123456
0 .................
1 h................
2 .................
3 .................
4 .................
5 .................
6 .................
7 .................
8 .................
9 ..f..............
0 ................r
1 ..............r..
2 r................
3 .r...............
4 .................
5 .................
6 .................

Turn = 21.
  01234567890123456
0 .................
1 h................
2 .................
3 .................
4 .................
5 .................
6 .................
7 .................
8 .................
9 ..f.............r
0 .................
1 .............r...
2 r................
3 ..r..............
4 .................
5 .................
6 .................

Turn = 22.
  01234567890123456
0 .................
1 h................
2 .................
3 .................
4 .................
5 .................
6 .................
7 .................
8 ................r
9 ..f..............
0 .................
1 ............r....
2 .................
3 r..r.............
4 .................
5 .................
6 .................

Turn = 23.
  01234567890123456
0 .................
1 h................
2 .................
3 .................
4 .................
5 .................
6 .................
7 ................r
8 .................
9 ..f..............
0 .................
1 ...........r.....
2 .................
3 ....r............
4 r................
5 .................
6 .................

Turn = 24.
  01234567890123456
0 .................
1 h................
2 .................
3 .................
4 .................
5 .................
6 ................r
7 .................
8 .................
9 ..f..............
0 .................
1 ..........r......
2 .................
3 .....r...........
4 .................
5 r................
6 .................

*** Darwin 10x8 ***
Turn = 0.
  01234567
0 ......f.
1 ..h.....
2 ........
3 ........
4 ....h...
5 ......f.
6 ........
7 ........
8 ..r.....
9 ........

Turn = 4.
  01234567
0 ......f.
1 h.......
2 ........
3 ........
4 h.......
5 ......f.
6 ........
7 ........
8 ......r.
9 ........

Turn = 8.
  01234567
0 ......f.
1 h.......
2 ........
3 ........
4 h.......
5 ......f.
6 ........
7 ........
8 ........
9 .......r

Turn = 12.
  01234567
0 ......f.
1 h.......
2 ........
3 ........
4 h.......
5 ......f.
6 ........
7 ........
8 ........
9 .....r..

*** Darwin 18x2 ***
Turn = 0.
  01
0 .f
1 ..
2 ..
3 f.
4 ..
5 ..
6 ..
7 ..
8 .t
9 f.
0 r.
1 ..
2 hr
3 t.
4 ..
5 .h
6 .t
7 r.

Turn = 2.
  01
0 .f
1 ..
2 ..
3 f.
4 ..
5 ..
6 ..
7 ..
8 .t
9 r.
0 r.
1 .r
2 h.
3 th
4 ..
5 ..
6 .t
7 .r

Turn = 4.
  01
0 .f
1 ..
2 ..
3 f.
4 ..
5 ..
6 ..
7 ..
8 rt
9 .r
0 r.
1 ..
2 h.
3 tt
4 ..
5 ..
6 .t
7 r.

Turn = 6.
  01
0 .f
1 ..
2 ..
3 f.
4 ..
5 ..
6 r.
7 ..
8 rr
9 .r
0 ..
1 ..
2 t.
3 tt
4 ..
5 ..
6 .t
7 r.

Turn = 8.
  01
0 .f
1 ..
2 ..
3 f.
4 r.
5 ..
6 r.
7 ..
8 r.
9 ..
0 .r
1 ..
2 t.
3 tt
4 ..
5 ..
6 .t
7 .r

Turn = 10.
  01
0 .f
1 ..
2 r.
3 r.
4 r.
5 ..
6 ..
7 ..
8 ..
9 ..
0 r.
1 ..
2 tr
3 tt
4 ..
5 ..
6 .t
7 .t

Turn = 12.
  01
0 rf
1 r.
2 r.
3 ..
4 ..
5 ..
6 ..
7 ..
8 ..
9 ..
0 ..
1 r.
2 rr
3 tt
4 ..
5 ..
6 .t
7 .t

Turn = 14.
  01
0 rf
1 r.
2 r.
3 ..
4 ..
5 ..
6 ..
7 ..
8 ..
9 ..
0 ..
1 rr
2 .r
3 tt
4 ..
5 ..
6 .t
7 .t

Turn = 16.
  01
0 rr
1 .r
2 r.
3 ..
4 ..
5 ..
6 ..
7 ..
8 ..
9 r.
0 .r
1 ..
2 .t
3 tt
4 ..
5 ..
6 .t
7 .t

Turn = 18.
  01
0 rr
1 rr
2 ..
3 ..
4 ..
5 ..
6 ..
7 r.
8 .r
9 ..
0 ..
1 ..
2 .t
3 tt
4 ..
5 ..
6 .t
7 .t

Turn = 20.
  01
0 rr
1 .r
2 r.
3 ..
4 ..
5 r.
6 .r
7 ..
8 ..
9 ..
0 ..
1 ..
2 .t
3 tt
4 ..
5 ..
6 .t
7 .t

Turn = 22.
  01
0 rr
1 ..
2 .r
3 r.
4 rr
5 ..
6 ..
7 ..
8 ..
9 ..
0 ..
1 ..
2 .t
3 tt
4 ..
5 ..
6 .t
7 .t

*** Darwin 7x17 ***
Turn = 0.
  01234567890123456
0 ......t....t.....
1 ..........r...h..
2 ............r...h
3 .................
4 .r...............
5 .................
6 ..........t......

Turn = 4.
  01234567890123456
0 .r....t....t....h
1 ......r..........
2 ...............r.
3 .................
4 .................
5 ..............r..
6 ..........t......

Turn = 8.
  01234567890123456
0 ....r.t....t....r
1 ......t.........r
2 .................
3 .................
4 .................
5 .................
6 ..........t.r....

*** Darwin 16x19 ***
Turn = 0.
  0123456789012345678
0 ...................
1 ..................f
2 ...................
3 ...................
4 ...................
5 ............t......
6 ...................
7 ............f......
8 ...f...............
9 ...................
0 ...................
1 .............f....f
2 ...................
3 ...................
4 h..................
5 ...................

Turn = 3.
  0123456789012345678
0 ...................
1 ..................f
2 ...................
3 ...................
4 ...................
5 ............t......
6 ...................
7 ............f......
8 ...f...............
9 ...................
0 ...................
1 .............f....f
2 ...................
3 ...................
4 ...h...............
5 ...................

Turn = 6.
  0123456789012345678
0 ...................
1 ..................f
2 ...................
3 ...................
4 ...................
5 ............t......
6 ...................
7 ............f......
8 ...f...............
9 ...................
0 ...................
1 .............f....f
2 ...................
3 ...................
4 ......h............
5 ...................

*** Darwin 8x19 ***
Turn = 0.
  0123456789012345678
0 ...................
1 ...................
2 ...................
3 ..........r........
4 ...................
5 ..............r....
6 ...................
7 ...................

Turn = 4.
  0123456789012345678
0 ...................
1 ...................
2 ...................
3 ......r............
4 ...................
5 ...................
6 ...................
7 .............r.....

Turn = 8.
  0123456789012345678
0 ...................
1 ...................
2 ...................
3 ..r................
4 ...................
5 ...................
6 ...................
7 .........r.........

Turn = 12.
  0123456789012345678
0 ...................
1 ...................
2 ...................
3 ...................
4 r..................
5 ...................
6 ...................
7 .....r.............

Turn = 16.
  0123456789012345678
0 ...................
1 ...................
2 ...................
3 ...................
4 ...................
5 ...................
6 ...................
7 rr.................

Turn = 20.
  0123456789012345678
0 ...................
1 ...................
2 ...................
3 ...................
4 rr.................
5 ...................
6 ...................
7 ...................

Turn = 24.
  0123456789012345678
0 rr.................
1 ...................
2 ...................
3 ...................
4 ...................
5 ...................
6 ...................
7 ...................

*** Darwin 20x17 ***
Turn = 0.
  01234567890123456
0 ..............t..
1 .................
2 .................
3 .r...............
4 .................
5 .................
6 .t...............
7 .t...............
8 .................
9 ....t.........r..
0 .................
1 .................
2 ............f....
3 .................
4 .................
5 .................
6 .................
7 .......t.........
8 ..............r..
9 .................

Turn = 4.
  01234567890123456
0 .r............t..
1 .................
2 .................
3 .................
4 .................
5 .................
6 .t...............
7 .t...............
8 .................
9 ....t.....r......
0 .................
1 .................
2 ............f....
3 .................
4 .................
5 .................
6 .................
7 .......t.........
8 .................
9 ............r....

Turn = 8.
  01234567890123456
0 .r............t..
1 .................
2 .................
3 .................
4 .................
5 .................
6 .t...............
7 .t...............
8 .................
9 ....t.r..........
0 .................
1 .................
2 ............f....
3 .................
4 .................
5 .................
6 .................
7 .......t.........
8 .................
9 ........r........

Turn = 12.
  01234567890123456
0 .....r........t..
1 .................
2 .................
3 .................
4 .................
5 .................
6 .t...............
7 .t...............
8 .....r...........
9 .................
0 ....r............
1 .................
2 ............f....
3 .................
4 .................
5 .................
6 .................
7 .......t.........
8 .................
9 ....r............

Turn = 16.
  01234567890123456
0 .........r....t..
1 .................
2 .................
3 .................
4 .....r...........
5 .................
6 .t...............
7 .t...............
8 .................
9 .................
0 .................
1 .................
2 ............f....
3 .................
4 ....r............
5 .................
6 .................
7 .......t.........
8 .................
9 r................

Turn = 20.
  01234567890123456
0 .....r.......rt..
1 .................
2 .................
3 .................
4 .................
5 .................
6 .t...............
7 .t...............
8 .................
9 .................
0 .................
1 .................
2 ............f....
3 .................
4 .................
5 .................
6 .................
7 .......t.........
8 ....r............
9 ..r..............

Turn = 24.
  01234567890123456
0 ........r.....r.r
1 .................
2 .................
3 .................
4 .................
5 .................
6 .t...............
7 .t...............
8 .................
9 .................
0 .................
1 .................
2 ............f....
3 .................
4 .................
5 .................
6 .................
7 ...r...t.........
8 .................
9 ..r..............

*** Darwin 6x14 ***
Turn = 0.
  01234567890123
0 .........r....
1 .........r....
2 ..............
3 ...f..........
4 ..............
5 ....fr.....f..

Turn = 3.
  01234567890123
0 ...........r..
1 .......r......
2 ..............
3 ...f..........
4 ..............
5 ....rr.....f..

Turn = 6.
  01234567890123
0 .............r
1 ....r.........
2 .....r........
3 ...f..........
4 ..............
5 ..r........f..

Turn = 9.
  01234567890123
0 .....r.....r..
1 .r............
2 ..............
3 ...f..........
4 ..............
5 r..........f..

Turn = 12.
  01234567890123
0 ........rr....
1 ..............
2 r.............
3 r..f..........
4 ..............
5 ...........f..

*** Darwin 4x9 ***
Turn = 0.
  012345678
0 h.r......
1 .......h.
2 hf.h..h..
3 ...httr..

Turn = 1.
  012345678
0 h........
1 h.r...h..
2 .f..h..h.
3 ...tttt..

Turn = 2.
  012345678
0 h........
1 h....h...
2 .fr..h..h
3 ...tttt..

Turn = 3.
  012345678
0 h........
1 h...h....
2 .f....h.h
3 ..rtttt..

Turn = 4.
  012345678
0 h........
1 h..h.....
2 .f.....hh
3 ..ttttt..

Turn = 5.
  012345678
0 h........
1 h.h......
2 .f.....hh
3 ..ttttt..

Turn = 6.
  012345678
0 h........
1 hh.......
2 .f.....hh
3 ..ttttt..

Turn = 7.
  012345678
0 h........
1 hh.......
2 .f.....hh
3 ..ttttt..

Turn = 8.
  012345678
0 h........
1 hh.......
2 .f.....hh
3 ..ttttt..

Turn = 9.
  012345678
0 h........
1 hh.......
2 .f.....hh
3 ..ttttt..

Turn = 10.
  012345678
0 h........
1 hh.......
2 .f.....hh
3 ..ttttt..

Turn = 11.
  012345678
0 h........
1 hh.......
2 .f.....hh
3 ..ttttt..

Turn = 12.
  012345678
0 h........
1 hh.......
2 .f.....hh
3 ..ttttt..

Turn = 13.
  012345678
0 h........
1 hh.......
2 .f.....hh
3 ..ttttt..

Turn = 14.
  012345678
0 h........
1 hh.......
2 .f.....hh
3 ..ttttt..

Turn = 15.
  012345678
0 h........
1 hh.......
2 .f.....hh
3 ..ttttt..

Turn = 16.
  012345678
0 h........
1 hh.......
2 .f.....hh
3 ..ttttt..

*** Darwin 21x17 ***
Turn = 0.
  01234567890123456
0 .......ftr......t
1 .....f.......t...
2 .......r.........
3 .................
4 f................
5 .................
6 ................f
7 .................
8 .................
9 .................
0 .................
1 .................
2 .................
3 .................
4 .................
5 ..............h..
6 .................
7 .................
8 .................
9 .................
0 .................

Turn = 2.
  01234567890123456
0 .......rrr......t
1 .....f.......t...
2 .........r.......
3 .................
4 f................
5 .................
6 ................f
7 .................
8 .................
9 .................
0 .................
1 .................
2 .................
3 .................
4 .................
5 ................h
6 .................
7 .................
8 .................
9 .................
0 .................

Turn = 4.
  01234567890123456
0 ......r.r.......t
1 .....f.......t...
2 .......r...r.....
3 .................
4 f................
5 .................
6 ................f
7 .................
8 .................
9 .................
0 .................
1 .................
2 .................
3 .................
4 .................
5 ................h
6 .................
7 .................
8 .................
9 .................
0 .................

Turn = 6.
  01234567890123456
0 ....r.r.........t
1 .....f.......t...
2 .............r...
3 .................
4 f......r.........
5 .................
6 ................f
7 .................
8 .................
9 .................
0 .................
1 .................
2 .................
3 .................
4 .................
5 ................h
6 .................
7 .................
8 .................
9 .................
0 .................

Turn = 8.
  01234567890123456
0 ..r.r...........t
1 .....f.......t...
2 ...............r.
3 .................
4 f................
5 .................
6 .......r........f
7 .................
8 .................
9 .................
0 .................
1 .................
2 .................
3 .................
4 .................
5 ................h
6 .................
7 .................
8 .................
9 .................
0 .................

Turn = 10.
  01234567890123456
0 r.r.............t
1 .....f.......t...
2 ................r
3 .................
4 f................
5 .................
6 ................f
7 .................
8 .......r.........
9 .................
0 .................
1 .................
2 .................
3 .................
4 .................
5 ................h
6 .................
7 .................
8 .................
9 .................
0 .................

Turn = 12.
  01234567890123456
0 rr..............t
1 .....f.......t...
2 .................
3 .................
4 f...............r
5 .................
6 ................f
7 .................
8 .................
9 .................
0 .......r.........
1 .................
2 .................
3 .................
4 .................
5 ................h
6 .................
7 .................
8 .................
9 .................
0 .................

*** Darwin 11x22 ***
Turn = 0.
  0123456789012345678901
0 ......................
1 ......................
2 ......................
3 ......................
4 ......................
5 ...................h..
6 hh....................
7 ......................
8 ......................
9 ......................
0 .........t.r..........

Turn = 1.
  0123456789012345678901
0 ......................
1 ......................
2 ......................
3 ......................
4 ......................
5 ..................h...
6 hh....................
7 ......................
8 ......................
9 ...........r..........
0 .........t............

Turn = 2.
  0123456789012345678901
0 ......................
1 ......................
2 ......................
3 ......................
4 ......................
5 .................h....
6 hh....................
7 ......................
8 ...........r..........
9 ......................
0 .........t............

Turn = 3.
  0123456789012345678901
0 ......................
1 ......................
2 ......................
3 ......................
4 ......................
5 ................h.....
6 hh....................
7 ...........r..........
8 ......................
9 ......................
0 .........t............

Turn = 4.
  0123456789012345678901
0 ......................
1 ......................
2 ......................
3 ......................
4 ......................
5 ...............h......
6 hh.........r..........
7 ......................
8 ......................
9 ......................
0 .........t............

Turn = 5.
  0123456789012345678901
0 ......................
1 ......................
2 ......................
3 ......................
4 ......................
5 ...........r..h.......
6 hh....................
7 ......................
8 ......................
9 ......................
0 .........t............

Turn = 6.
  0123456789012345678901
0 ......................
1 ......................
2 ......................
3 ......................
4 ...........r..........
5 .............h........
6 hh....................
7 ......................
8 ......................
9 ......................
0 .........t............

Turn = 7.
  0123456789012345678901
0 ......................
1 ......................
2 ......................
3 ...........r..........
4 ......................
5 ............h.........
6 hh....................
7 ......................
8 ......................
9 ......................
0 .........t............

Turn = 8.
  0123456789012345678901
0 ......................
1 ......................
2 ...........r..........
3 ......................
4 ......................
5 ...........h..........
6 hh....................
7 ......................
8 ......................
9 ......................
0 .........t............

Turn = 9.
  0123456789012345678901
0 ......................
1 ...........r..........
2 ......................
3 ......................
4 ......................
5 ..........h...........
6 hh....................
7 ......................
8 ......................
9 ......................
0 .........t............

Turn = 10.
  0123456789012345678901
0 ...........r..........
1 ......................
2 ......................
3 ......................
4 ......................
5 .........h............
6 hh....................
7 ......................
8 ......................
9 ......................
0 .........t............

Turn = 11.
  0123456789012345678901
0 ...........r..........
1 ......................
2 ......................
3 ......................
4 ......................
5 ........h.............
6 hh....................
7 ......................
8 ......................
9 ......................
0 .........t............

Turn = 12.
  0123456789012345678901
0 ............r.........
1 ......................
2 ......................
3 ......................
4 ......................
5 .......h..............
6 hh....................
7 ......................
8 ......................
9 ......................
0 .........t............

Turn = 13.
  0123456789012345678901
0 .............r........
1 ......................
2 ......................
3 ......................
4 ......................
5 ......h...............
6 hh....................
7 ......................
8 ......................
9 ......................
0 .........t............

Turn = 14.
  0123456789012345678901
0 ..............r.......
1 ......................
2 ......................
3 ......................
4 ......................
5 .....h................
6 hh....................
7 ......................
8 ......................
9 ......................
0 .........t............

Turn = 15.
  0123456789012345678901
0 ...............r......
1 ......................
2 ......................
3 ......................
4 ......................
5 ....h.................
6 hh....................
7 ......................
8 ......................
9 ......................
0 .........t............

Turn = 16.
  0123456789012345678901
0 ................r.....
1 ......................
2 ......................
3 ......................
4 ......................
5 ...h..................
6 hh....................
7 ......................
8 ......................
9 ......................
0 .........t............

Turn = 17.
  0123456789012345678901
0 .................r....
1 ......................
2 ......................
3 ......................
4 ......................
5 ..h...................
6 hh....................
7 ......................
8 ......................
9 ......................
0 .........t............

Turn = 18.
  0123456789012345678901
0 ..................r...
1 ......................
2 ......................
3 ......................
4 ......................
5 .h....................
6 hh....................
7 ......................
8 ......................
9 ......................
0 .........t............

Turn = 19.
  0123456789012345678901
0 ...................r..
1 ......................
2 ......................
3 ......................
4 ......................
5 h.....................
6 hh....................
7 ......................
8 ......................
9 ......................
0 .........t............

Turn = 20.
  0123456789012345678901
0 ....................r.
1 ......................
2 ......................
3 ......................
4 ......................
5 h.....................
6 hh....................
7 ......................
8 ......................
9 ......................
0 .........t............

Turn = 21.
  0123456789012345678901
0 .....................r
1 ......................
2 ......................
3 ......................
4 ......................
5 h.....................
6 hh....................
7 ......................
8 ......................
9 ......................
0 .........t............

Turn = 22.
  0123456789012345678901
0 .....................r
1 ......................
2 ......................
3 ......................
4 ......................
5 h.....................
6 hh....................
7 ......................
8 ......................
9 ......................
0 .........t............

Turn = 23.
  0123456789012345678901
0 .....................r
1 ......................
2 ......................
3 ......................
4 ......................
5 h.....................
6 hh....................
7 ......................
8 ......................
9 ......................
0 .........t............

*** Darwin 18x19 ***
Turn = 0.
  0123456789012345678
0 ...................
1 ...................
2 ...................
3 ...................
4 ...................
5 ...................
6 ...................
7 ...................
8 ...................
9 ...................
0 ...................
1 .......r...........
2 ...................
3 ...................
4 ...................
5 ...................
6 ...................
7 ..............r....

Turn = 1.
  0123456789012345678
0 ...................
1 ...................
2 ...................
3 ...................
4 ...................
5 ...................
6 ...................
7 ...................
8 ...................
9 ...................
0 ...................
1 ........r..........
2 ...................
3 ...................
4 ...................
5 ...................
6 ..............r....
7 ...................

Turn = 2.
  0123456789012345678
0 ...................
1 ...................
2 ...................
3 ...................
4 ...................
5 ...................
6 ...................
7 ...................
8 ...................
9 ...................
0 ...................
1 .........r.........
2 ...................
3 ...................
4 ...................
5 ..............r....
6 ...................
7 ...................

Turn = 3.
  0123456789012345678
0 ...................
1 ...................
2 ...................
3 ...................
4 ...................
5 ...................
6 ...................
7 ...................
8 ...................
9 ...................
0 ...................
1 ..........r........
2 ...................
3 ...................
4 ..............r....
5 ...................
6 ...................
7 ...................

Turn = 4.
  0123456789012345678
0 ...................
1 ...................
2 ...................
3 ...................
4 ...................
5 ...................
6 ...................
7 ...................
8 ...................
9 ...................
0 ...................
1 ...........r.......
2 ...................
3 ..............r....
4 ...................
5 ...................
6 ...................
7 ...................

Turn = 5.
  0123456789012345678
0 ...................
1 ...................
2 ...................
3 ...................
4 ...................
5 ...................
6 ...................
7 ...................
8 ...................
9 ...................
0 ...................
1 ............r......
2 ..............r....
3 ...................
4 ...................
5 ...................
6 ...................
7 ...................

Turn = 6.
  0123456789012345678
0 ...................
1 ...................
2 ...................
3 ...................
4 ...................
5 ...................
6 ...................
7 ...................
8 ...................
9 ...................
0 ...................
1 .............rr....
2 ...................
3 ...................
4 ...................
5 ...................
6 ...................
7 ...................

Turn = 7.
  0123456789012345678
0 ...................
1 ...................
2 ...................
3 ...................
4 ...................
5 ...................
6 ...................
7 ...................
8 ...................
9 ...................
0 ..............r....
1 .............r.....
2 ...................
3 ...................
4 ...................
5 ...................
6 ...................
7 ...................

Turn = 8.
  0123456789012345678
0 ...................
1 ...................
2 ...................
3 ...................
4 ...................
5 ...................
6 ...................
7 ...................
8 ...................
9 ..............r....
0 ...................
1 ...................
2 .............r.....
3 ...................
4 ...................
5 ...................
6 ...................
7 ...................

Turn = 9.
  0123456789012345678
0 ...................
1 ...................
2 ...................
3 ...................
4 ...................
5 ...................
6 ...................
7 ...................
8 ..............r....
9 ...................
0 ...................
1 ...................
2 ...................
3 .............r.....
4 ...................
5 ...................
6 ...................
7 ...................

Turn = 10.
  0123456789012345678
0 ...................
1 ...................
2 ...................
3 ...................
4 ...................
5 ...................
6 ...................
7 ..............r....
8 ...................
9 ...................
0 ...................
1 ...................
2 ...................
3 ...................
4 .............r.....
5 ...................
6 ...................
7 ...................

Turn = 11.
  0123456789012345678
0 ...................
1 ...................
2 ...................
3 ...................
4 ...................
5 ...................
6 ..............r....
7 ...................
8 ...................
9 ...................
0 ...................
1 ...................
2 ...................
3 ...................
4 ...................
5 .............r.....
6 ...................
7 ...................

Turn = 12.
  0123456789012345678
0 ...................
1 ...................
2 ...................
3 ...................
4 ...................
5 ..............r....
6 ...................
7 ...................
8 ...................
9 ...................
0 ...................
1 ...................
2 ...................
3 ...................
4 ...................
5 ...................
6 .............r.....
7 ...................

Turn = 13.
  0123456789012345678
0 ...................
1 ...................
2 ...................
3 ...................
4 ..............r....
5 ...................
6 ...................
7 ...................
8 ...................
9 ...................
0 ...................
1 ...................
2 ...................
3 ...................
4 ...................
5 ...................
6 ...................
7 .............r.....

Turn = 14.
  0123456789012345678
0 ...................
1 ...................
2 ...................
3 ..............r....
4 ...................
5 ...................
6 ...................
7 ...................
8 ...................
9 ...................
0 ...................
1 ...................
2 ...................
3 ...................
4 ...................
5 ...................
6 ...................
7 .............r.....

Turn = 15.
  0123456789012345678
0 ...................
1 ...................
2 ..............r....
3 ...................
4 ...................
5 ...................
6 ...................
7 ...................
8 ...................
9 ...................
0 ...................
1 ...................
2 ...................
3 ...................
4 ...................
5 ...................
6 ...................
7 ..............r....

Turn = 16.
  0123456789012345678
0 ...................
1 ..............r....
2 ...................
3 ...................
4 ...................
5 ...................
6 ...................
7 ...................
8 ...................
9 ...................
0 ...................
1 ...................
2 ...................
3 ...................
4 ...................
5 ...................
6 ...................
7 ...............r...

Turn = 17.
  0123456789012345678
0 ..............r....
1 ...................
2 ...................
3 ...................
4 ...................
5 ...................
6 ...................
7 ...................
8 ...................
9 ...................
0 ...................
1 ...................
2 ...................
3 ...................
4 ...................
5 ...................
6 ...................
7 ................r..

Turn = 18.
  0123456789012345678
0 ..............r....
1 ...................
2 ...................
3 ...................
4 ...................
5 ...................
6 ...................
7 ...................
8 ...................
9 ...................
0 ...................
1 ...................
2 ...................
3 ...................
4 ...................
5 ...................
6 ...................
7 .................r.

Turn = 19.
  0123456789012345678
0 ...............r...
1 ...................
2 ...................
3 ...................
4 ...................
5 ...................
6 ...................
7 ...................
8 ...................
9 ...................
0 ...................
1 ...................
2 ...................
3 ...................
4 ...................
5 ...................
6 ...................
7 ..................r

Turn = 20.
  0123456789012345678
0 ................r..
1 ...................
2 ...................
3 ...................
4 ...................
5 ...................
6 ...................
7 ...................
8 ...................
9 ...................
0 ...................
1 ...................
2 ...................
3 ...................
4 ...................
5 ...................
6 ...................
7 ..................r

Turn = 21.
  0123456789012345678
0 .................r.
1 ...................
2 ...................
3 ...................
4 ...................
5 ...................
6 ...................
7 ...................
8 ...................
9 ...................
0 ...................
1 ...................
2 ...................
3 ...................
4 ...................
5 ...................
6 ...................
7 ..................r

*** Darwin 22x18 ***
Turn = 0.
  012345678901234567
0 ..................
1 ..................
2 ...t..............
3 ..................
4 ..................
5 ...t..............
6 ..................
7 ..................
8 ..................
9 ..................
0 ..................
1 ..................
2 ..................
3 ..................
4 ..................
5 .............h....
6 .........r........
7 ..................
8 .........r........
9 ..................
0 ..................
1 .......f..........

Turn = 1.
  012345678901234567
0 ..................
1 ..................
2 ...t..............
3 ..................
4 ..................
5 ...t..............
6 ..................
7 ..................
8 ..................
9 ..................
0 ..................
1 ..................
2 ..................
3 ..................
4 ..................
5 ............h.....
6 ........r.........
7 ..................
8 ..................
9 .........r........
0 ..................
1 .......f..........

Turn = 2.
  012345678901234567
0 ..................
1 ..................
2 ...t..............
3 ..................
4 ..................
5 ...t..............
6 ..................
7 ..................
8 ..................
9 ..................
0 ..................
1 ..................
2 ..................
3 ..................
4 ..................
5 ...........h......
6 .......r..........
7 ..................
8 ..................
9 ..................
0 .........r........
1 .......f..........

Turn = 3.
  012345678901234567
0 ..................
1 ..................
2 ...t..............
3 ..................
4 ..................
5 ...t..............
6 ..................
7 ..................
8 ..................
9 ..................
0 ..................
1 ..................
2 ..................
3 ..................
4 ..................
5 ..........h.......
6 ......r...........
7 ..................
8 ..................
9 ..................
0 ..................
1 .......f.r........

Turn = 4.
  012345678901234567
0 ..................
1 ..................
2 ...t..............
3 ..................
4 ..................
5 ...t..............
6 ..................
7 ..................
8 ..................
9 ..................
0 ..................
1 ..................
2 ..................
3 ..................
4 ..................
5 .........h........
6 .....r............
7 ..................
8 ..................
9 ..................
0 ..................
1 .......f.r........

Turn = 5.
  012345678901234567
0 ..................
1 ..................
2 ...t..............
3 ..................
4 ..................
5 ...t..............
6 ..................
7 ..................
8 ..................
9 ..................
0 ..................
1 ..................
2 ..................
3 ..................
4 ..................
5 ........h.........
6 ....r.............
7 ..................
8 ..................
9 ..................
0 ..................
1 .......fr.........

Turn = 6.
  012345678901234567
0 ..................
1 ..................
2 ...t..............
3 ..................
4 ..................
5 ...t..............
6 ..................
7 ..................
8 ..................
9 ..................
0 ..................
1 ..................
2 ..................
3 ..................
4 ..................
5 .......h..........
6 ...r..............
7 ..................
8 ..................
9 ..................
0 ..................
1 .......rr.........

Turn = 7.
  012345678901234567
0 ..................
1 ..................
2 ...t..............
3 ..................
4 ..................
5 ...t..............
6 ..................
7 ..................
8 ..................
9 ..................
0 ..................
1 ..................
2 ..................
3 ..................
4 ..................
5 ......h...........
6 ..r...............
7 ..................
8 ..................
9 ..................
0 ..................
1 .......rr.........

Turn = 8.
  012345678901234567
0 ..................
1 ..................
2 ...t..............
3 ..................
4 ..................
5 ...t..............
6 ..................
7 ..................
8 ..................
9 ..................
0 ..................
1 ..................
2 ..................
3 ..................
4 ..................
5 .....h............
6 .r................
7 ..................
8 ..................
9 ..................
0 ........r.........
1 .......r..........

Turn = 9.
  012345678901234567
0 ..................
1 ..................
2 ...t..............
3 ..................
4 ..................
5 ...t..............
6 ..................
7 ..................
8 ..................
9 ..................
0 ..................
1 ..................
2 ..................
3 ..................
4 ..................
5 ....h.............
6 r.................
7 ..................
8 ..................
9 ........r.........
0 ..................
1 .......r..........

Turn = 10.
  012345678901234567
0 ..................
1 ..................
2 ...t..............
3 ..................
4 ..................
5 ...t..............
6 ..................
7 ..................
8 ..................
9 ..................
0 ..................
1 ..................
2 ..................
3 ..................
4 ..................
5 ...h..............
6 r.................
7 ..................
8 ........r.........
9 ..................
0 ..................
1 ......r...........

Turn = 11.
  012345678901234567
0 ..................
1 ..................
2 ...t..............
3 ..................
4 ..................
5 ...t..............
6 ..................
7 ..................
8 ..................
9 ..................
0 ..................
1 ..................
2 ..................
3 ..................
4 ..................
5 r.h...............
6 ..................
7 ........r.........
8 ..................
9 ..................
0 ..................
1 .....r............

Turn = 12.
  012345678901234567
0 ..................
1 ..................
2 ...t..............
3 ..................
4 ..................
5 ...t..............
6 ..................
7 ..................
8 ..................
9 ..................
0 ..................
1 ..................
2 ..................
3 ..................
4 r.................
5 .h................
6 ........r.........
7 ..................
8 ..................
9 ..................
0 ..................
1 ....r.............

Turn = 13.
  012345678901234567
0 ..................
1 ..................
2 ...t..............
3 ..................
4 ..................
5 ...t..............
6 ..................
7 ..................
8 ..................
9 ..................
0 ..................
1 ..................
2 ..................
3 r.................
4 ..................
5 h.......r.........
6 ..................
7 ..................
8 ..................
9 ..................
0 ..................
1 ...r..............

*** Darwin 9x21 ***
Turn = 0.
  012345678901234567890
0 .....................
1 .............r....f..
2 .....................
3 .....................
4 ..................r..
5 .....................
6 .....................
7 .....h...............
8 .....................

Turn = 3.
  012345678901234567890
0 .....................
1 ................r.f..
2 .....................
3 .....................
4 ...............r.....
5 .....................
6 .....................
7 ..h..................
8 .....................

Turn = 6.
  012345678901234567890
0 ..................r..
1 .................r...
2 .....................
3 .....................
4 ............r........
5 .....................
6 .....................
7 h....................
8 .....................

Turn = 9.
  012345678901234567890
0 ..................r.r
1 .....................
2 .....................
3 .....................
4 .........r...........
5 .....................
6 .....................
7 h....................
8 .....................

*** Darwin 24x25 ***
Turn = 0.
  0123456789012345678901234
0 .........................
1 .........................
2 .........................
3 .........................
4 .........................
5 .........................
6 .........................
7 ..................h......
8 ........................t
9 .........................
0 .........................
1 .........................
2 .........................
3 .........................
4 ...........f.............
5 .t....t.......t..........
6 .........................
7 .........................
8 ......................h..
9 .........................
0 .........................
1 .........................
2 .........................
3 .........................

Turn = 3.
  0123456789012345678901234
0 .........................
1 .........................
2 .........................
3 .........................
4 .........................
5 .........................
6 .........................
7 .....................h...
8 ........................t
9 .........................
0 .........................
1 .........................
2 .........................
3 .........................
4 ...........f.............
5 .t....t.......t..........
6 .........................
7 .........................
8 .........................
9 .........................
0 .........................
1 ......................h..
2 .........................
3 .........................

Turn = 6.
  0123456789012345678901234
0 .........................
1 .........................
2 .........................
3 .........................
4 .........................
5 .........................
6 .........................
7 ........................h
8 ........................t
9 .........................
0 .........................
1 .........................
2 .........................
3 .........................
4 ...........f.............
5 .t....t.......t..........
6 .........................
7 .........................
8 .........................
9 .........................
0 .........................
1 .........................
2 .........................
3 ......................h..

Turn = 9.
  0123456789012345678901234
0 .........................
1 .........................
2 .........................
3 .........................
4 .........................
5 .........................
6 .........................
7 ........................t
8 ........................t
9 .........................
0 .........................
1 .........................
2 .........................
3 .........................
4 ...........f.............
5 .t....t.......t..........
6 .........................
7 .........................
8 .........................
9 .........................
0 .........................
1 .........................
2 .........................
3 ......................h..

Turn = 12.
  0123456789012345678901234
0 .........................
1 .........................
2 .........................
3 .........................
4 .........................
5 .........................
6 .........................
7 ........................t
8 ........................t
9 .........................
0 .........................
1 .........................
2 .........................
3 .........................
4 ...........f.............
5 .t....t.......t..........
6 .........................
7 .........................
8 .........................
9 .........................
0 .........................
1 .........................
2 .........................
3 ......................h..

Turn = 15.
  0123456789012345678901234
0 .........................
1 .........................
2 .........................
3 .........................
4 .........................
5 .........................
6 .........................
7 ........................t
8 ........................t
9 .........................
0 .........................
1 .........................
2 .........................
3 .........................
4 ...........f.............
5 .t....t.......t..........
6 .........................
7 .........................
8 .........................
9 .........................
0 .........................
1 .........................
2 .........................
3 ......................h..

Turn = 18.
  0123456789012345678901234
0 .........................
1 .........................
2 .........................
3 .........................
4 .........................
5 .........................
6 .........................
7 ........................t
8 ........................t
9 .........................
0 .........................
1 .........................
2 .........................
3 .........................
4 ...........f.............
5 .t....t.......t..........
6 .........................
7 .........................
8 .........................
9 .........................
0 .........................
1 .........................
2 .........................
3 ......................h..

*** Darwin 18x13 ***
Turn = 0.
  0123456789012
0 .............
1 .............
2 .............
3 .....h.......
4 .............
5 .f......t...h
6 .............
7 ...h.........
8 .............
9 .............
0 .............
1 .............
2 .............
3 .....t.......
4 .............
5 .............
6 .............
7 ...f.........

Turn = 4.
  0123456789012
0 .....h.......
1 .............
2 .............
3 ...h.........
4 .............
5 .f......th...
6 .............
7 .............
8 .............
9 .............
0 .............
1 .............
2 .............
3 .....t.......
4 .............
5 .............
6 .............
7 ...f.........

Turn = 8.
  0123456789012
0 ...h.h.......
1 .............
2 .............
3 .............
4 .............
5 .f......tt...
6 .............
7 .............
8 .............
9 .............
0 .............
1 .............
2 .............
3 .....t.......
4 .............
5 .............
6 .............
7 ...f.........

*** Darwin 22x22 ***
Turn = 0.
  0123456789012345678901
0 ......................
1 ......................
2 ......................
3 ......................
4 ......h...............
5 ......................
6 ......................
7 ......................
8 ......................
9 ......r...........t...
0 ......................
1 ......................
2 ......................
3 ......................
4 r.....................
5 ......................
6 ............r.........
7 ......................
8 ......................
9 .....h................
0 ......................
1 .....h................

Turn = 2.
  0123456789012345678901
0 ......................
1 ......................
2 ......................
3 ......................
4 ........h.............
5 ......................
6 ......................
7 ......................
8 ......................
9 ....r.............t...
0 ......................
1 ......................
2 ......................
3 ......................
4 ..r.........r.........
5 ......................
6 ......................
7 ......................
8 ......................
9 ......................
0 .....h................
1 .....h................

Turn = 4.
  0123456789012345678901
0 ......................
1 ......................
2 ......................
3 ......................
4 ..........h...........
5 ......................
6 ......................
7 ......................
8 ......................
9 ..r...............t...
0 ......................
1 ......................
2 ............r.........
3 ......................
4 ....r.................
5 ......................
6 ......................
7 ......................
8 ......................
9 ......................
0 .....h................
1 .....h................

Turn = 6.
  0123456789012345678901
0 ......................
1 ......................
2 ......................
3 ......................
4 ............h.........
5 ......................
6 ......................
7 ......................
8 ......................
9 r.................t...
0 ............r.........
1 ......................
2 ......................
3 ......................
4 ......r...............
5 ......................
6 ......................
7 ......................
8 ......................
9 ......................
0 .....h................
1 .....h................

Turn = 8.
  0123456789012345678901
0 ......................
1 ......................
2 ......................
3 ......................
4 ..............h.......
5 ......................
6 ......................
7 ......................
8 r...........r.........
9 ..................t...
0 ......................
1 ......................
2 ......................
3 ......................
4 ........r.............
5 ......................
6 ......................
7 ......................
8 ......................
9 ......................
0 .....h................
1 .....h................

Turn = 10.
  0123456789012345678901
0 ......................
1 ......................
2 ......................
3 ......................
4 ................h.....
5 ......................
6 r...........r.........
7 ......................
8 ......................
9 ..................t...
0 ......................
1 ......................
2 ......................
3 ......................
4 ..........r...........
5 ......................
6 ......................
7 ......................
8 ......................
9 ......................
0 .....h................
1 .....h................

Turn = 12.
  0123456789012345678901
0 ......................
1 ......................
2 ......................
3 ......................
4 r...........r.....h...
5 ......................
6 ......................
7 ......................
8 ......................
9 ..................t...
0 ......................
1 ......................
2 ......................
3 ......................
4 ............r.........
5 ......................
6 ......................
7 ......................
8 ......................
9 ......................
0 .....h................
1 .....h................

Turn = 14.
  0123456789012345678901
0 ......................
1 ......................
2 r...........r.........
3 ......................
4 ....................h.
5 ......................
6 ......................
7 ......................
8 ......................
9 ..................t...
0 ......................
1 ......................
2 ......................
3 ......................
4 ..............r.......
5 ......................
6 ......................
7 ......................
8 ......................
9 ......................
0 .....h................
1 .....h................

Turn = 16.
  0123456789012345678901
0 r...........r.........
1 ......................
2 ......................
3 ......................
4 .....................h
5 ......................
6 ......................
7 ......................
8 ......................
9 ..................t...
0 ......................
1 ......................
2 ......................
3 ......................
4 ................r.....
5 ......................
6 ......................
7 ......................
8 ......................
9 ......................
0 .....h................
1 .....h................

Turn = 18.
  0123456789012345678901
0 r............r........
1 ......................
2 ......................
3 ......................
4 .....................h
5 ......................
6 ......................
7 ......................
8 ......................
9 ..................t...
0 ......................
1 ......................
2 ......................
3 ......................
4 ..................r...
5 ......................
6 ......................
7 ......................
8 ......................
9 ......................
0 .....h................
1 .....h................

Turn = 20.
  0123456789012345678901
0 .r.............r......
1 ......................
2 ......................
3 ......................
4 .....................h
5 ......................
6 ......................
7 ......................
8 ......................
9 ..................t...
0 ......................
1 ......................
2 ......................
3 ......................
4 ....................r.
5 ......................
6 ......................
7 ......................
8 ......................
9 ......................
0 .....h................
1 .....h................

*** Darwin 21x7 ***
Turn = 0.
  0123456
0 .......
1 ht.f...
2 .......
3 .......
4 h.f....
5 .....t.
6 .......
7 .......
8 .......
9 .......
0 .......
1 .......
2 .t.....
3 .......
4 .......
5 .......
6 .......
7 .......
8 .......
9 ......r
0 .......

Turn = 2.
  0123456
0 .......
1 tt.f...
2 h......
3 .......
4 ..f....
5 .....t.
6 .......
7 .......
8 .......
9 .......
0 .......
1 .......
2 .t.....
3 .......
4 .......
5 .......
6 .......
7 .......
8 .......
9 .......
0 ......r

Turn = 4.
  0123456
0 .......
1 tt.f...
2 t......
3 .......
4 ..f....
5 .....t.
6 .......
7 .......
8 .......
9 .......
0 .......
1 .......
2 .t.....
3 .......
4 .......
5 .......
6 .......
7 .......
8 .......
9 .......
0 ....r..

Turn = 6.
  0123456
0 .......
1 tt.f...
2 t......
3 .......
4 ..f....
5 .....t.
6 .......
7 .......
8 .......
9 .......
0 .......
1 .......
2 .t.....
3 .......
4 .......
5 .......
6 .......
7 .......
8 .......
9 .......
0 ..r....

Turn = 8.
  0123456
0 .......
1 tt.f...
2 t......
3 .......
4 ..f....
5 .....t.
6 .......
7 .......
8 .......
9 .......
0 .......
1 .......
2 .t.....
3 .......
4 .......
5 .......
6 .......
7 .......
8 .......
9 .......
0 r......

Turn = 10.
  0123456
0 .......
1 tt.f...
2 t......
3 .......
4 ..f....
5 .....t.
6 .......
7 .......
8 .......
9 .......
0 .......
1 .......
2 .t.....
3 .......
4 .......
5 .......
6 .......
7 .......
8 .......
9 .......
0 r......

Turn = 12.
  0123456
0 .......
1 tt.f...
2 t......
3 .......
4 ..f....
5 .....t.
6 .......
7 .......
8 .......
9 .......
0 .......
1 .......
2 .t.....
3 .......
4 .......
5 .......
6 .......
7 .......
8 .......
9 r......
0 .......

Turn = 14.
  0123456
0 .......
1 tt.f...
2 t......
3 .......
4 ..f....
5 .....t.
6 .......
7 .......
8 .......
9 .......
0 .......
1 .......
2 .t.....
3 .......
4 .......
5 .......
6 .......
7 r......
8 .......
9 .......
0 .......

Turn = 16.
  0123456
0 .......
1 tt.f...
2 t......
3 .......
4 ..f....
5 .....t.
6 .......
7 .......
8 .......
9 .......
0 .......
1 .......
2 .t.....
3 .......
4 .......
5 r......
6 .......
7 .......
8 .......
9 .......
0 .......

Turn = 18.
  0123456
0 .......
1 tt.f...
2 t......
3 .......
4 ..f....
5 .....t.
6 .......
7 .......
8 .......
9 .......
0 .......
1 .......
2 .t.....
3 r......
4 .......
5 .......
6 .......
7 .......
8 .......
9 .......
0 .......

Turn = 20.
  0123456
0 .......
1 tt.f...
2 t......
3 .......
4 ..f....
5 .....t.
6 .......
7 .......
8 .......
9 .......
0 .......
1 r......
2 .t.....
3 .......
4 .......
5 .......
6 .......
7 .......
8 .......
9 .......
0 .......

Turn = 22.
  0123456
0 .......
1 tt.f...
2 t......
3 .......
4 ..f....
5 .....t.
6 .......
7 .......
8 .......
9 r......
0 .......
1 .......
2 .t.....
3 .......
4 .......
5 .......
6 .......
7 .......
8 .......
9 .......
0 .......

*** Darwin 17x19 ***
Turn = 0.
  0123456789012345678
0 ...........h.......
1 ...................
2 ...................
3 ...................
4 ...................
5 ...............t...
6 ...................
7 ...................
8 ..................t
9 ...................
0 ...................
1 ...................
2 ...................
3 ...................
4 ...................
5 .................r.
6 ...................

Turn = 4.
  0123456789012345678
0 .......h...........
1 ...................
2 ...................
3 ...................
4 ...................
5 ...............t...
6 ...................
7 ...................
8 ..................t
9 ...................
0 ...................
1 ...................
2 ...................
3 ...................
4 ...................
5 ...................
6 ..................r

Turn = 8.
  0123456789012345678
0 ...h...............
1 ...................
2 ...................
3 ...................
4 ...................
5 ...............t...
6 ...................
7 ...................
8 ..................t
9 ...................
0 ...................
1 ...................
2 ...................
3 ...................
4 ...................
5 ...................
6 ................r..

Turn = 12.
  0123456789012345678
0 h..................
1 ...................
2 ...................
3 ...................
4 ...................
5 ...............t...
6 ...................
7 ...................
8 ..................t
9 ...................
0 ...................
1 ...................
2 ...................
3 ...................
4 ...................
5 ...................
6 ............r......

Turn = 16.
  0123456789012345678
0 h..................
1 ...................
2 ...................
3 ...................
4 ...................
5 ...............t...
6 ...................
7 ...................
8 ..................t
9 ...................
0 ...................
1 ...................
2 ...................
3 ...................
4 ...................
5 ...................
6 ........r..........

*** Darwin 11x1 ***
Turn = 0.
  0
0 .
1 .
2 .
3 .
4 f
5 .
6 .
7 h
8 .
9 .
0 .

Turn = 2.
  0
0 .
1 .
2 .
3 .
4 f
5 h
6 .
7 .
8 .
9 .
0 .

Turn = 4.
  0
0 .
1 .
2 .
3 .
4 f
5 h
6 .
7 .
8 .
9 .
0 .

Turn = 6.
  0
0 .
1 .
2 .
3 .
4 f
5 h
6 .
7 .
8 .
9 .
0 .

Turn = 8.
  0
0 .
1 .
2 .
3 .
4 f
5 h
6 .
7 .
8 .
9 .
0 .

Turn = 10.
  0
0 .
1 .
2 .
3 .
4 f
5 h
6 .
7 .
8 .
9 .
0 .

Turn = 12.
  0
0 .
1 .
2 .
3 .
4 f
5 h
6 .
7 .
8 .
9 .
0 .

Turn = 14.
  0
0 .
1 .
2 .
3 .
4 f
5 h
6 .
7 .
8 .
9 .
0 .

Turn = 16.
  0
0 .
1 .
2 .
3 .
4 f
5 h
6 .
7 .
8 .
9 .
0 .

Turn = 18.
  0
0 .
1 .
2 .
3 .
4 f
5 h
6 .
7 .
8 .
9 .
0 .

Turn = 20.
  0
0 .
1 .
2 .
3 .
4 f
5 h
6 .
7 .
8 .
9 .
0 .

Turn = 22.
  0
0 .
1 .
2 .
3 .
4 f
5 h
6 .
7 .
8 .
9 .
0 .

Turn = 24.
  0
0 .
1 .
2 .
3 .
4 f
5 h
6 .
7 .
8 .
9 .
0 .

*** Darwin 22x19 ***
Turn = 0.
  0123456789012345678
0 ...................
1 .....ff............
2 ...................
3 ...................
4 ..t................
5 .......th..........
6 ...................
7 ...................
8 ..............f....
9 ..............r....
0 ...................
1 ...................
2 ....r........h.....
3 ...................
4 .f.................
5 ...................
6 ...................
7 ..........t........
8 ...................
9 t..................
0 ...................
1 ...................

Turn = 2.
  0123456789012345678
0 ...................
1 .....ff............
2 ...................
3 ........h..........
4 ..t................
5 .......t...........
6 ...................
7 ...................
8 ..............r....
9 ..............r....
0 .............h.....
1 ...................
2 ......r............
3 ...................
4 .f.................
5 ...................
6 ...................
7 ..........t........
8 ...................
9 t..................
0 ...................
1 ...................

Turn = 4.
  0123456789012345678
0 ...................
1 .....ff.h..........
2 ...................
3 ...................
4 ..t................
5 .......t...........
6 ...................
7 ...................
8 ............r......
9 ............rh.....
0 ...................
1 ...................
2 ........r..........
3 ...................
4 .f.................
5 ...................
6 ...................
7 ..........t........
8 ...................
9 t..................
0 ...................
1 ...................

Turn = 6.
  0123456789012345678
0 ........h..........
1 .....ff............
2 ...................
3 ...................
4 ..t................
5 .......t...........
6 ...................
7 .............h.....
8 ..........r........
9 ..........r........
0 ...................
1 ...................
2 ..........r........
3 ...................
4 .f.................
5 ...................
6 ...................
7 ..........t........
8 ...................
9 t..................
0 ...................
1 ...................

Turn = 8.
  0123456789012345678
0 ........h..........
1 .....ff............
2 ...................
3 ...................
4 ..t................
5 .......t.....h.....
6 ...................
7 ...................
8 ........r..........
9 ........r..........
0 ...................
1 ...................
2 ............r......
3 ...................
4 .f.................
5 ...................
6 ...................
7 ..........t........
8 ...................
9 t..................
0 ...................
1 ...................

Turn = 10.
  0123456789012345678
0 ........h..........
1 .....ff............
2 ...................
3 .............h.....
4 ..t................
5 .......t...........
6 ...................
7 ...................
8 ......r............
9 ......r............
0 ...................
1 ...................
2 ..............r....
3 ...................
4 .f.................
5 ...................
6 ...................
7 ..........t........
8 ...................
9 t..................
0 ...................
1 ...................

Turn = 12.
  0123456789012345678
0 ........h..........
1 .....ff......h.....
2 ...................
3 ...................
4 ..t................
5 .......t...........
6 ...................
7 ...................
8 ....r..............
9 ....r..............
0 ...................
1 ...................
2 ................r..
3 ...................
4 .f.................
5 ...................
6 ...................
7 ..........t........
8 ...................
9 t..................
0 ...................
1 ...................

Turn = 14.
  0123456789012345678
0 ........h....h.....
1 .....ff............
2 ...................
3 ...................
4 ..t................
5 .......t...........
6 ...................
7 ...................
8 ..r................
9 ..r................
0 ...................
1 ...................
2 ..................r
3 ...................
4 .f.................
5 ...................
6 ...................
7 ..........t........
8 ...................
9 t..................
0 ...................
1 ...................

Turn = 16.
  0123456789012345678
0 ........h....h.....
1 .....ff............
2 ...................
3 ...................
4 ..t................
5 .......t...........
6 ...................
7 ...................
8 r..................
9 r..................
0 ...................
1 ...................
2 ...................
3 ..................r
4 .f.................
5 ...................
6 ...................
7 ..........t........
8 ...................
9 t..................
0 ...................
1 ...................

Turn = 18.
  0123456789012345678
0 ........h....h.....
1 .....ff............
2 ...................
3 ...................
4 ..t................
5 .......t...........
6 ...................
7 r..................
8 r..................
9 ...................
0 ...................
1 ...................
2 ...................
3 ...................
4 .f.................
5 ..................r
6 ...................
7 ..........t........
8 ...................
9 t..................
0 ...................
1 ...................

Turn = 20.
  0123456789012345678
0 ........h....h.....
1 .....ff............
2 ...................
3 ...................
4 ..t................
5 r......t...........
6 r..................
7 ...................
8 ...................
9 ...................
0 ...................
1 ...................
2 ...................
3 ...................
4 .f.................
5 ...................
6 ...................
7 ..........t.......r
8 ...................
9 t..................
0 ...................
1 ...................

*** Darwin 24x9 ***
Turn = 0.
  012345678
0 .........
1 .........
2 .........
3 .........
4 .........
5 .........
6 .........
7 .r.......
8 .........
9 .........
0 .......f.
1 .........
2 ..f......
3 .........
4 .........
5 .rr......
6 .........
7 ......f..
8 .........
9 .......f.
0 .t.......
1 .........
2 .........
3 .........

Turn = 4.
  012345678
0 .........
1 .........
2 .........
3 .........
4 .........
5 .........
6 .........
7 .....r...
8 .........
9 .........
0 .......f.
1 .........
2 ..f......
3 .........
4 .........
5 .........
6 .........
7 ......f..
8 .rr......
9 .......f.
0 .t.......
1 .........
2 .........
3 .........

Turn = 8.
  012345678
0 .........
1 .........
2 .........
3 .........
4 .........
5 .........
6 .........
7 ........r
8 .........
9 .........
0 .......f.
1 .........
2 ..f......
3 .........
4 .........
5 .........
6 .........
7 ......f..
8 .........
9 .t.....f.
0 .t.......
1 .........
2 ..r......
3 .........

Turn = 12.
  012345678
0 .........
1 .........
2 .........
3 .........
4 .........
5 .........
6 .........
7 .........
8 .........
9 .........
0 .......f.
1 ........r
2 ..f......
3 .........
4 .........
5 .........
6 .........
7 ......f..
8 .........
9 .t.....f.
0 .t.......
1 .........
2 .........
3 r........

Turn = 16.
  012345678
0 .........
1 .........
2 .........
3 .........
4 .........
5 .........
6 .........
7 .........
8 .........
9 .........
0 .......f.
1 .........
2 ..f......
3 .........
4 .........
5 ........r
6 .........
7 ......f..
8 .........
9 .t.....f.
0 rt.......
1 .........
2 .........
3 .........

*** Darwin 5x22 ***
Turn = 0.
  0123456789012345678901
0 ......................
1 .........h............
2 ...t..................
3 .....r................
4 ......................

Turn = 1.
  0123456789012345678901
0 ......................
1 ......................
2 ...t.....h............
3 ......r...............
4 ......................

Turn = 2.
  0123456789012345678901
0 ......................
1 ......................
2 ...t..................
3 .......r.h............
4 ......................

Turn = 3.
  0123456789012345678901
0 ......................
1 ......................
2 ...t..................
3 ........r.............
4 .........h............

Turn = 4.
  0123456789012345678901
0 ......................
1 ......................
2 ...t..................
3 .........r............
4 .........h............

Turn = 5.
  0123456789012345678901
0 ......................
1 ......................
2 ...t..................
3 ..........r...........
4 .........h............

Turn = 6.
  0123456789012345678901
0 ......................
1 ......................
2 ...t..................
3 ...........r..........
4 .........h............

Turn = 7.
  0123456789012345678901
0 ......................
1 ......................
2 ...t..................
3 ............r.........
4 .........h............

Turn = 8.
  0123456789012345678901
0 ......................
1 ......................
2 ...t..................
3 .............r........
4 .........h............

Turn = 9.
  0123456789012345678901
0 ......................
1 ......................
2 ...t..................
3 ..............r.......
4 .........h............

Turn = 10.
  0123456789012345678901
0 ......................
1 ......................
2 ...t..................
3 ...............r......
4 .........h............

Turn = 11.
  0123456789012345678901
0 ......................
1 ......................
2 ...t..................
3 ................r.....
4 .........h............

Turn = 12.
  0123456789012345678901
0 ......................
1 ......................
2 ...t..................
3 .................r....
4 .........h............

Turn = 13.
  0123456789012345678901
0 ......................
1 ......................
2 ...t..................
3 ..................r...
4 .........h............

Turn = 14.
  0123456789012345678901
0 ......................
1 ......................
2 ...t..................
3 ...................r..
4 .........h............

Turn = 15.
  0123456789012345678901
0 ......................
1 ......................
2 ...t..................
3 ....................r.
4 .........h............

Turn = 16.
  0123456789012345678901
0 ......................
1 ......................
2 ...t..................
3 .....................r
4 .........h............

Turn = 17.
  0123456789012345678901
0 ......................
1 ......................
2 ...t..................
3 .....................r
4 .........h............

Turn = 18.
  0123456789012345678901
0 ......................
1 ......................
2 ...t..................
3 ......................
4 .........h...........r

Turn = 19.
  0123456789012345678901
0 ......................
1 ......................
2 ...t..................
3 ......................
4 .........h...........r
