*** Darwin 4x13 ***
Turn = 0.
  0123456789012
0 f......t.....
1 r...t.....t..
2 ....f..hr....
3 ...htt..h.h..

Turn = 6.
  0123456789012
0 f......t...r.
1 ....t.r......
2 ...rt.....h..
3 ..r.ttt.r....

Turn = 12.
  0123456789012
0 f.....tt.....
1 ......r.....r
2 .r...r.......
3 ...rrrr..r..r

Turn = 18.
  0123456789012
0 f....rtt.....
1 .......t.....
2 r..........r.
3 .rrr...r...rr

*** Darwin 24x3 ***
Turn = 0.
  012
0 ...
1 ...
2 ...
3 ...
4 .r.
5 ...
6 ..h
7 ...
8 ...
9 h..
0 ...
1 ...
2 ...
3 ...
4 ...
5 ...
6 ...
7 ...
8 ...
9 ...
0 ...
1 ...
2 f..
3 ...

Turn = 10.
  012
0 r..
1 ...
2 ...
3 ...
4 ...
5 ...
6 ...
7 ...
8 ...
9 h..
0 ...
1 ...
2 ...
3 .r.
4 ...
5 ...
6 ...
7 ...
8 ...
9 ...
0 ...
1 ...
2 f..
3 ...

Turn = 20.
  012
0 ...
1 ...
2 ...
3 ...
4 ...
5 ..r
6 ...
7 ...
8 ...
9 h..
0 ...
1 ...
2 ...
3 ...
4 ...
5 ...
6 ...
7 ...
8 ...
9 ...
0 ...
1 ...
2 f..
3 .r.

*** Darwin 15x22 ***
Turn = 0.
  0123456789012345678901
0 ......................
1 .................h....
2 ....................r.
3 ......................
4 ......................
5 ...........f..........
6 .......f......h...h...
7 ...................rt.
8 ......................
9 ...h..........t.......
0 ......................
1 ..............h.......
2 ......................
3 r.....................
4 ....f.................

Turn = 2.
  0123456789012345678901
0 .................h....
1 ......................
2 ..................r...
3 ......................
4 ......................
5 ...........f..........
6 .......f..............
7 ....................t.
8 ..............h...h...
9 .....h........t....r..
0 ......................
1 ............h.........
2 r.....................
3 ......................
4 ....f.................

*** Darwin 12x11 ***
Turn = 0.
  01234567890
0 ...........
1 ...........
2 ...........
3 ...........
4 ...........
5 ...........
6 ...........
7 ...........
8 ...........
9 ...........
0 .........r.
1 ....f......

Turn = 16.
  01234567890
0 ...........
1 ..........r
2 ...........
3 ...........
4 ...........
5 ...........
6 ...........
7 ...........
8 ...........
9 ...........
0 ...........
1 ....f......

*** Darwin 15x23 ***
Turn = 0.
  01234567890123456789012
0 .t..h..................
1 .......................
2 .......................
3 .......................
4 .....................f.
5 .......................
6 .......................
7 ......t................
8 .......................
9 .......................
0 .......................
1 .......................
2 .....h.............h...
3 .......................
4 .......................

Turn = 5.
  01234567890123456789012
0 .tt....................
1 .......................
2 .......................
3 .......................
4 .....................f.
5 .......................
6 .......................
7 ......t................
8 .......................
9 .......................
0 .......................
1 .......................
2 h.............h........
3 .......................
4 .......................

Turn = 10.
  01234567890123456789012
0 .tt....................
1 .......................
2 .......................
3 .......................
4 .....................f.
5 .......................
6 .......................
7 ......t................
8 .......................
9 .......................
0 .......................
1 .......................
2 h........h.............
3 .......................
4 .......................

Turn = 15.
  01234567890123456789012
0 .tt....................
1 .......................
2 .......................
3 .......................
4 .....................f.
5 .......................
6 .......................
7 ......t................
8 .......................
9 .......................
0 .......................
1 .......................
2 h...h..................
3 .......................
4 .......................

*** Darwin 17x10 ***
Turn = 0.
  0123456789
0 ..........
1 ..........
2 ..........
3 ..........
4 ....h.....
5 ..........
6 ..........
7 ..........
8 ..........
9 ..........
0 ..........
1 ..f...t...
2 .......t..
3 ..........
4 ..........
5 ..........
6 ..........

Turn = 13.
  0123456789
0 ..........
1 ..........
2 ..........
3 ..........
4 .........h
5 ..........
6 ..........
7 ..........
8 ..........
9 ..........
0 ..........
1 ..f...t...
2 .......t..
3 ..........
4 ..........
5 ..........
6 ..........

*** Darwin 22x17 ***
Turn = 0.
  01234567890123456
0 .................
1 .........t...r...
2 .................
3 .................
4 .....f.....f.....
5 .................
6 .................
7 .........h.......
8 .................
9 .................
0 .........t.......
1 .................
2 ............h....
3 .......t.........
4 .................
5 .................
6 .................
7 .................
8 ............r....
9 .................
0 .................
1 .................

Turn = 11.
  01234567890123456
0 .................
1 .........t.......
2 .................
3 .................
4 .....f.....f.....
5 ................r
6 .................
7 ................h
8 .................
9 .................
0 .........t.......
1 .................
2 ................h
3 .......t.........
4 .................
5 .................
6 .................
7 .................
8 .................
9 .................
0 .................
1 ...............r.

Turn = 22.
  01234567890123456
0 ................r
1 .........t.......
2 .................
3 .................
4 .....f.....f.....
5 .................
6 .................
7 .................
8 .................
9 .................
0 .........t.......
1 .............r...
2 .................
3 .......t.........
4 .................
5 .................
6 ................r
7 .................
8 .................
9 .................
0 .................
1 ....r............

Turn = 33.
  01234567890123456
0 .....r...........
1 .........t.......
2 .................
3 .................
4 .....f.....f.....
5 .................
6 .................
7 .................
8 .................
9 .................
0 .........t.......
1 ..r..............
2 .................
3 .......t.........
4 .................
5 r................
6 .................
7 .................
8 .................
9 .................
0 .................
1 .............r...

*** Darwin 22x10 ***
Turn = 0.
  0123456789
0 ......h...
1 ..........
2 ..........
3 ..........
4 ..........
5 ..........
6 .hr.......
7 f.........
8 .t....f...
9 .......h..
0 ....t.....
1 .....h....
2 ..........
3 .........r
4 ........f.
5 .....r..f.
6 ......f...
7 ..........
8 ..........
9 ..........
0 .....f....
1 ..........

Turn = 2.
  0123456789
0 ..........
1 ..........
2 ......h...
3 ..........
4 ..........
5 ..........
6 .rr.......
7 f.........
8 .t....f...
9 .........h
0 ....t.....
1 ...h......
2 ..........
3 .......r..
4 ........f.
5 ........f.
6 ......f...
7 .....r....
8 ..........
9 ..........
0 .....f....
1 ..........

Turn = 4.
  0123456789
0 ..........
1 ..........
2 ..........
3 ..........
4 ......h...
5 ..........
6 ..........
7 ft........
8 .tr...f...
9 .........h
0 ....t.....
1 .h........
2 ..........
3 .....r....
4 ........f.
5 ........f.
6 ......f...
7 ..........
8 ..........
9 .....r....
0 .....f....
1 ..........

Turn = 6.
  0123456789
0 ..........
1 ..........
2 ..........
3 ..........
4 ..........
5 ..........
6 ......h...
7 ft........
8 .t....f...
9 .........h
0 ..r.t.....
1 h.........
2 ..........
3 ...r......
4 ........f.
5 ........f.
6 ......f...
7 ..........
8 ..........
9 ..........
0 .....r.r..
1 ..........

Turn = 8.
  0123456789
0 ..........
1 ..........
2 ..........
3 ..........
4 ..........
5 ..........
6 ..........
7 tt....h...
8 .t....f...
9 .........h
0 ....t.....
1 h.........
2 ..r.......
3 .r........
4 ........f.
5 ........f.
6 ......f...
7 ..........
8 ..........
9 ..........
0 .........r
1 .....r....

Turn = 10.
  0123456789
0 ..........
1 ..........
2 ..........
3 ..........
4 ..........
5 ..........
6 ..........
7 tt....h...
8 .t....f...
9 .........h
0 ....t.....
1 h.........
2 ..........
3 r.........
4 ..r.....f.
5 ........f.
6 ......f...
7 ..........
8 ..........
9 ..........
0 ..........
1 ...r.....r

Turn = 12.
  0123456789
0 ..........
1 ..........
2 ..........
3 ..........
4 ..........
5 ..........
6 ..........
7 tt....h...
8 .t....f...
9 .........h
0 ....t.....
1 r.........
2 r.........
3 ..........
4 ........f.
5 ........f.
6 ..r...f...
7 ..........
8 ..........
9 ..........
0 ..........
1 .r......r.

Turn = 14.
  0123456789
0 ..........
1 ..........
2 ..........
3 ..........
4 ..........
5 ..........
6 ..........
7 tt....h...
8 .t....f...
9 .........h
0 ....t.....
1 r.........
2 r.........
3 ..........
4 ........f.
5 ........f.
6 ......f...
7 ..........
8 ..r.......
9 ..........
0 ..........
1 r.....r...

Turn = 16.
  0123456789
0 ..........
1 ..........
2 ..........
3 ..........
4 ..........
5 ..........
6 ..........
7 tt....h...
8 .t....f...
9 .........h
0 r...t.....
1 ..........
2 r.........
3 ..........
4 ........f.
5 ........f.
6 ......f...
7 ..........
8 ..........
9 ..........
0 ..r.......
1 r...r.....

Turn = 18.
  0123456789
0 ..........
1 ..........
2 ..........
3 ..........
4 ..........
5 ..........
6 ..........
7 tt....h...
8 rt....f...
9 .........h
0 r...t.....
1 ..........
2 ..........
3 ..........
4 ........f.
5 ........f.
6 ......f...
7 ..........
8 ..........
9 ..........
0 ..........
1 .rrr......

Turn = 20.
  0123456789
0 ..........
1 ..........
2 ..........
3 ..........
4 ..........
5 ..........
6 ..........
7 rt....h...
8 rt....f...
9 r........h
0 ....t.....
1 ..........
2 ..........
3 ..........
4 ........f.
5 ........f.
6 ......f...
7 ..........
8 ..........
9 ..........
0 .r........
1 ..r.r.....

*** Darwin 15x24 ***
Turn = 0.
  012345678901234567890123
0 ............t...........
1 ...h....................
2 ....................r...
3 ........................
4 ..................h.....
5 ........................
6 ........t...............
7 t..h....................
8 ........................
9 ........r...............
0 ........................
1 ..................f.....
2 ..........f.............
3 ........................
4 ...................h....

Turn = 13.
  012345678901234567890123
0 ............t...........
1 h..................h....
2 .......r................
3 ........................
4 .......................h
5 ........................
6 ........t...............
7 r.......................
8 .r......................
9 ........................
0 ........................
1 ..................f.....
2 ..........f.............
3 ........................
4 ...h....................

Turn = 26.
  012345678901234567890123
0 r...........t......h....
1 r.r.....................
2 ........................
3 ........................
4 .......................h
5 ........................
6 ........t...............
7 ........................
8 ..............r.........
9 ........................
0 ........................
1 ..................f.....
2 ..........f.............
3 ........................
4 ...h....................

*** Darwin 16x1 ***
Turn = 0.
  0
0 .
1 .
2 .
3 .
4 .
5 .
6 .
7 .
8 .
9 .
0 .
1 .
2 .
3 .
4 r
5 .

Turn = 6.
  0
0 .
1 .
2 .
3 .
4 .
5 .
6 .
7 .
8 .
9 .
0 .
1 .
2 .
3 .
4 .
5 r

*** Darwin 13x22 ***
Turn = 0.
  0123456789012345678901
0 ......................
1 ..............h.......
2 ......................
3 .......t..............
4 ......................
5 ......................
6 ..............r.......
7 ......................
8 ......................
9 ......................
0 ......................
1 ..h...................
2 ......................

Turn = 2.
  0123456789012345678901
0 ......................
1 ............h.........
2 ......................
3 .......t..............
4 ......................
5 ......................
6 ............r.........
7 ......................
8 ......................
9 ......................
0 ......................
1 h.....................
2 ......................

Turn = 4.
  0123456789012345678901
0 ......................
1 ..........h...........
2 ......................
3 .......t..............
4 ......................
5 ......................
6 ..........r...........
7 ......................
8 ......................
9 ......................
0 ......................
1 h.....................
2 ......................

Turn = 6.
  0123456789012345678901
0 ......................
1 ........h.............
2 ......................
3 .......t..............
4 ......................
5 ......................
6 ........r.............
7 ......................
8 ......................
9 ......................
0 ......................
1 h.....................
2 ......................

Turn = 8.
  0123456789012345678901
0 ......................
1 ......h...............
2 ......................
3 .......t..............
4 ......................
5 ......................
6 ......r...............
7 ......................
8 ......................
9 ......................
0 ......................
1 h.....................
2 ......................

Turn = 10.
  0123456789012345678901
0 ......................
1 ....h.................
2 ......................
3 .......t..............
4 ......................
5 ......................
6 ....r.................
7 ......................
8 ......................
9 ......................
0 ......................
1 h.....................
2 ......................

Turn = 12.
  0123456789012345678901
0 ......................
1 ..h...................
2 ......................
3 .......t..............
4 ......................
5 ......................
6 ..r...................
7 ......................
8 ......................
9 ......................
0 ......................
1 h.....................
2 ......................

*** Darwin 8x16 ***
Turn = 0.
  0123456789012345
0 ..r.............
1 ................
2 .....r..........
3 t.......r.t.h...
4 .............t..
5 .............h..
6 ...f............
7 .r....t.........

Turn = 6.
  0123456789012345
0 ........r.......
1 .r..............
2 ..........t.....
3 t.........tt....
4 .............t..
5 .............t..
6 ...f............
7 ......tr........

Turn = 12.
  0123456789012345
0 r.............r.
1 ................
2 ..........t.....
3 t......r..tt....
4 .............t..
5 .............t..
6 ...f............
7 ...r............

Turn = 18.
  0123456789012345
0 .........r......
1 ................
2 ..........t.....
3 ..........tt....
4 .............t.r
5 r............t..
6 r..f............
7 r...............

Turn = 24.
  0123456789012345
0 ...............r
1 ................
2 ..........t.....
3 ..........tt....
4 .............t..
5 ...r.........t..
6 .....r..........
7 .r...r.......r..

Turn = 30.
  0123456789012345
0 ................
1 ................
2 ..........t.....
3 ..........tt....
4 .............t..
5 .........r...t.r
6 .........r.r....
7 .......r.r......

*** Darwin 17x8 ***
Turn = 0.
  01234567
0 ........
1 ........
2 ........
3 ........
4 ....h...
5 ......f.
6 ........
7 ........
8 ......h.
9 .h......
0 ........
1 .......f
2 ........
3 .....h..
4 ........
5 ........
6 ........

Turn = 3.
  01234567
0 ........
1 ....h...
2 ........
3 ........
4 ........
5 ......f.
6 ........
7 ........
8 ...h....
9 ....h...
0 ........
1 .......f
2 ........
3 ..h.....
4 ........
5 ........
6 ........

Turn = 6.
  01234567
0 ....h...
1 ........
2 ........
3 ........
4 ........
5 ......f.
6 ........
7 ........
8 h.......
9 .......h
0 ........
1 .......f
2 ........
3 h.......
4 ........
5 ........
6 ........

Turn = 9.
  01234567
0 ....h...
1 ........
2 ........
3 ........
4 ........
5 ......f.
6 ........
7 ........
8 h.......
9 .......h
0 ........
1 .......f
2 ........
3 h.......
4 ........
5 ........
6 ........

Turn = 12.
  01234567
0 ....h...
1 ........
2 ........
3 ........
4 ........
5 ......f.
6 ........
7 ........
8 h.......
9 .......h
0 ........
1 .......f
2 ........
3 h.......
4 ........
5 ........
6 ........

Turn = 15.
  01234567
0 ....h...
1 ........
2 ........
3 ........
4 ........
5 ......f.
6 ........
7 ........
8 h.......
9 .......h
0 ........
1 .......f
2 ........
3 h.......
4 ........
5 ........
6 ........

Turn = 18.
  01234567
0 ....h...
1 ........
2 ........
3 ........
4 ........
5 ......f.
6 ........
7 ........
8 h.......
9 .......h
0 ........
1 .......f
2 ........
3 h.......
4 ........
5 ........
6 ........

Turn = 21.
  01234567
0 ....h...
1 ........
2 ........
3 ........
4 ........
5 ......f.
6 ........
7 ........
8 h.......
9 .......h
0 ........
1 .......f
2 ........
3 h.......
4 ........
5 ........
6 ........

Turn = 24.
  01234567
0 ....h...
1 ........
2 ........
3 ........
4 ........
5 ......f.
6 ........
7 ........
8 h.......
9 .......h
0 ........
1 .......f
2 ........
3 h.......
4 ........
5 ........
6 ........

Turn = 27.
  01234567
0 ....h...
1 ........
2 ........
3 ........
4 ........
5 ......f.
6 ........
7 ........
8 h.......
9 .......h
0 ........
1 .......f
2 ........
3 h.......
4 ........
5 ........
6 ........

*** Darwin 18x8 ***
Turn = 0.
  01234567
0 ........
1 ........
2 ........
3 .....f..
4 ........
5 ...h....
6 ........
7 ........
8 ...rr...
9 ........
0 ........
1 ........
2 ........
3 .h......
4 ........
5 ........
6 ........
7 .....t..

Turn = 9.
  01234567
0 ........
1 ........
2 ........
3 .....f..
4 ........
5 .......h
6 ........
7 ........
8 ........
9 ........
0 ........
1 ........
2 ........
3 .......h
4 ........
5 ........
6 ...r....
7 ....rt..

Turn = 18.
  01234567
0 ........
1 ........
2 ........
3 .....f..
4 ........
5 .......h
6 ........
7 ........
8 ........
9 ........
0 ........
1 ........
2 ........
3 .......h
4 r.......
5 ........
6 ........
7 ....tt..

Turn = 27.
  01234567
0 ........
1 ........
2 ........
3 .....f..
4 ........
5 r......h
6 ........
7 ........
8 ........
9 ........
0 ........
1 ........
2 ........
3 .......h
4 ........
5 ........
6 ........
7 ....tt..

*** Darwin 19x5 ***
Turn = 0.
  01234
0 .r...
1 ....h
2 .....
3 .....
4 .....
5 .....
6 hf...
7 ..t..
8 ....f
9 ..t..
0 ..t..
1 ...h.
2 .f...
3 .....
4 .....
5 .t...
6 h....
7 .....
8 ...fh

Turn = 13.
  01234
0 .....
1 h....
2 .....
3 ....r
4 .....
5 .....
6 hf...
7 ..t..
8 ....f
9 ..tt.
0 ..t..
1 .....
2 .f...
3 .....
4 .....
5 .t...
6 ....h
7 .....
8 ...fh

Turn = 26.
  01234
0 .....
1 h....
2 .....
3 .....
4 .....
5 .....
6 hf...
7 ..t..
8 ..t..
9 ..tt.
0 ..t..
1 .....
2 .f...
3 .....
4 .....
5 .t..r
6 ....h
7 .....
8 ...fh

*** Darwin 8x12 ***
Turn = 0.
  012345678901
0 .......f.h..
1 ............
2 ............
3 ..r.........
4 ............
5 ............
6 ............
7 ............

Turn = 3.
  012345678901
0 .......f.h..
1 ............
2 ............
3 .....r......
4 ............
5 ............
6 ............
7 ............

Turn = 6.
  012345678901
0 .......f.h..
1 ............
2 ............
3 ........r...
4 ............
5 ............
6 ............
7 ............

Turn = 9.
  012345678901
0 .......f.h..
1 ............
2 ............
3 ...........r
4 ............
5 ............
6 ............
7 ............

Turn = 12.
  012345678901
0 .......f.h..
1 ............
2 ............
3 ............
4 ............
5 ...........r
6 ............
7 ............

Turn = 15.
  012345678901
0 .......f.h..
1 ............
2 ............
3 ............
4 ............
5 ............
6 ............
7 ...........r

Turn = 18.
  012345678901
0 .......f.h..
1 ............
2 ............
3 ............
4 ............
5 ............
6 ............
7 ..........r.

Turn = 21.
  012345678901
0 .......f.h..
1 ............
2 ............
3 ............
4 ............
5 ............
6 ............
7 .......r....

*** Darwin 18x19 ***
Turn = 0.
  0123456789012345678
0 ...................
1 ...................
2 ...................
3 ...................
4 .............h.....
5 ...................
6 ...................
7 ...................
8 ...................
9 ...................
0 ...................
1 ...................
2 ...................
3 ...................
4 .................t.
5 ...................
6 .......f...........
7 ...................

Turn = 4.
  0123456789012345678
0 .............h.....
1 ...................
2 ...................
3 ...................
4 ...................
5 ...................
6 ...................
7 ...................
8 ...................
9 ...................
0 ...................
1 ...................
2 ...................
3 ...................
4 .................t.
5 ...................
6 .......f...........
7 ...................

Turn = 8.
  0123456789012345678
0 .............h.....
1 ...................
2 ...................
3 ...................
4 ...................
5 ...................
6 ...................
7 ...................
8 ...................
9 ...................
0 ...................
1 ...................
2 ...................
3 ...................
4 .................t.
5 ...................
6 .......f...........
7 ...................

Turn = 12.
  0123456789012345678
0 .............h.....
1 ...................
2 ...................
3 ...................
4 ...................
5 ...................
6 ...................
7 ...................
8 ...................
9 ...................
0 ...................
1 ...................
2 ...................
3 ...................
4 .................t.
5 ...................
6 .......f...........
7 ...................

*** Darwin 8x25 ***
Turn = 0.
  0123456789012345678901234
0 ..............t..........
1 ..........f............r.
2 ............t............
3 ..........r...r..........
4 .........h.............r.
5 ............h............
6 .....................t...
7 ..................t......

Turn = 2.
  0123456789012345678901234
0 ..............t..........
1 ..........f..............
2 ............t............
3 .......................r.
4 .........................
5 ..........r..hr..........
6 .........h...........t.r.
7 ..................t......

Turn = 4.
  0123456789012345678901234
0 ..............t..........
1 ..........f..............
2 ............t............
3 .........................
4 .........................
5 ..............h........r.
6 .....................t...
7 .........hr...r...t....r.

Turn = 6.
  0123456789012345678901234
0 ..............t..........
1 ..........f..............
2 ............t............
3 .........................
4 .........................
5 ................h........
6 .....................t...
7 .........h.r.r....t..r.r.

Turn = 8.
  0123456789012345678901234
0 ..............t..........
1 ..........f..............
2 ............t............
3 .........................
4 .........................
5 ..................h......
6 .............r.......t...
7 .........h..r.....t..tr..

Turn = 10.
  0123456789012345678901234
0 ..............t..........
1 ..........f..............
2 ............t............
3 .........................
4 .............r...........
5 ....................h....
6 .....................t...
7 .........h...r....t..tt..

*** Darwin 2x22 ***
Turn = 0.
  0123456789012345678901
0 .fh........h..ht....hf
1 ......t..r.........t..

Turn = 30.
  0123456789012345678901
0 .f....tt......tt....hf
1 ......t...........tt..

*** Darwin 7x8 ***
Turn = 0.
  01234567
0 ....f...
1 ........
2 .r....r.
3 ......r.
4 ........
5 ........
6 ..t.....

Turn = 7.
  01234567
0 ...rr...
1 .....r..
2 ........
3 ........
4 ........
5 ........
6 ..t....r

Turn = 14.
  01234567
0 .......r
1 ......r.
2 r.......
3 ........
4 ........
5 ........
6 .rr.....

Turn = 21.
  01234567
0 .......r
1 r.......
2 ........
3 ........
4 ........
5 .r......
6 rr......

Turn = 28.
  01234567
0 rr......
1 ........
2 ........
3 ........
4 ........
5 ........
6 .....rrr

Turn = 35.
  01234567
0 .....r.r
1 .......r
2 ........
3 ........
4 ........
5 ........
6 r.r.....

Turn = 42.
  01234567
0 ...r....
1 ........
2 ..r.....
3 ........
4 .......r
5 ........
6 ...r...r

Turn = 49.
  01234567
0 r.......
1 .......r
2 ........
3 r.....r.
4 ........
5 ........
6 ....r...

*** Darwin 14x6 ***
Turn = 0.
  012345
0 ......
1 .t....
2 ....tf
3 ......
4 ......
5 ..h...
6 .....r
7 ......
8 .....f
9 ......
0 ..h...
1 ...r..
2 ......
3 h.....

Turn = 11.
  012345
0 ...rrr
1 .tt...
2 ..t...
3 ......
4 ......
5 ......
6 ......
7 .....r
8 .....r
9 ......
0 ......
1 ......
2 ......
3 .....h

Turn = 22.
  012345
0 ...r..
1 .tt...
2 ..t...
3 ......
4 ......
5 ......
6 ......
7 ......
8 ....r.
9 ......
0 .....r
1 r.....
2 ......
3 r....h

Turn = 33.
  012345
0 ......
1 .tt...
2 ..t...
3 ......
4 .....r
5 ......
6 ......
7 ...rr.
8 ......
9 ......
0 ......
1 ......
2 ..r...
3 rr....
