20

2 4
1
f 0 0 s
21 10

3 5
2
r 2 2 s
f 0 3 w
11 6

7 6
3
r 0 4 n
f 5 5 s
r 1 3 n
26 3

5 6
4
t 4 3 s
h 2 4 n
h 1 0 n
h 0 1 s
17 4

6 7
5
t 4 4 s
t 3 5 n
t 2 5 n
r 2 4 e
t 0 5 w
27 5

10 10
6
h 5 5 w
t 2 8 s
r 8 4 w
t 8 7 e
h 7 9 w
h 9 4 e
17 9

9 11
7
t 7 1 w
t 5 10 n
f 0 8 w
h 8 0 n
t 6 6 e
t 6 8 n
t 5 4 e
28 2

12 12
8
t 10 1 w
r 10 5 s
f 6 0 w
t 3 7 s
f 4 5 e
f 7 6 n
t 4 1 s
f 2 4 w
26 4

12 12
9
t 0 1 s
t 10 11 e
h 1 6 s
h 8 8 s
h 7 6 e
r 9 7 s
t 1 9 e
r 4 9 n
h 11 0 n
22 10

11 11
10
h 6 4 s
f 2 8 w
r 4 5 e
r 8 9 e
r 1 9 e
h 5 6 n
t 8 5 w
f 6 2 w
h 0 2 s
r 1 8 n
18 3

13 12
11
t 9 5 e
f 1 4 n
t 9 1 s
f 10 9 s
t 0 2 e
r 10 0 s
h 8 6 s
f 6 0 s
t 10 2 w
f 10 11 n
t 10 8 s
13 6

16 13
12
h 11 1 n
r 1 3 w
h 2 9 w
r 15 1 s
t 3 8 n
r 10 5 e
r 14 6 n
r 13 8 n
r 9 2 w
r 12 3 e
f 0 11 s
r 13 4 n
24 4

14 17
13
r 7 3 s
h 7 6 e
h 3 6 s
h 10 16 w
r 10 13 s
r 12 8 e
t 8 13 n
h 0 8 n
h 2 14 s
f 4 4 e
f 0 0 s
h 2 3 s
t 2 8 n
28 10

15 17
14
t 3 11 e
t 7 4 n
h 2 7 w
f 10 9 n
h 1 11 e
h 14 3 s
r 11 4 n
r 10 14 n
h 8 2 n
h 1 8 e
h 11 12 s
f 0 7 e
h 13 1 w
r 14 6 w
30 2

17 19
15
r 10 7 e
t 0 4 e
f 5 6 n
h 2 3 n
r 4 3 s
h 7 17 e
f 8 5 w
h 12 1 e
f 1 12 e
r 10 10 s
r 15 8 n
f 15 12 e
f 2 0 e
t 12 13 s
r 12 9 e
14 4

18 19
16
r 5 6 s
h 7 12 s
t 15 17 s
h 12 4 e
f 13 10 w
f 2 9 w
h 5 7 w
f 1 11 s
h 5 12 n
r 7 0 w
h 8 0 n
t 10 11 n
f 17 7 s
h 0 6 e
r 15 16 e
t 8 12 n
22 3

18 19
17
h 3 14 s
h 10 10 s
h 17 0 e
t 11 13 e
f 11 11 n
h 15 16 s
f 2 12 n
t 9 16 e
t 5 15 n
r 6 11 e
t 16 9 n
h 7 1 n
t 16 12 e
r 17 1 e
f 11 8 e
r 12 10 n
h 4 16 e
28 7

22 21
18
t 3 20 n
f 14 11 s
r 9 10 n
r 13 11 s
t 17 9 n
f 10 7 w
r 7 3 n
h 10 9 w
t 10 14 s
t 16 15 n
t 11 7 s
t 14 4 n
h 4 11 n
r 18 3 n
t 6 9 w
f 21 9 s
t 15 6 s
t 8 6 n
23 7

21 20
19
r 15 17 w
f 15 6 s
t 16 4 n
h 17 1 w
t 20 12 s
f 6 2 e
t 4 19 n
f 11 10 s
f 12 17 w
t 1 10 n
f 12 6 e
t 15 15 e
f 20 4 n
t 19 19 s
h 11 3 n
r 14 3 s
f 13 5 n
f 18 5 n
f 17 10 n
22 5

22 22
20
h 15 1 e
r 7 4 s
t 11 21 e
h 8 12 n
f 7 2 w
t 0 18 w
f 8 3 n
r 2 4 n
r 16 3 w
h 0 7 e
h 18 0 s
r 13 19 n
t 20 11 e
r 17 4 s
t 1 9 n
t 9 13 e
f 19 21 w
t 7 3 e
r 9 1 s
h 7 16 s
11 8
