*** Darwin 8x8 ***
Turn = 0.
  01234567
0 ........
1 ..r...t.
2 .......t
3 ......f.
4 ......fh
5 .r......
6 ........
7 .f.....r

Turn = 6.
  01234567
0 .r......
1 ......t.
2 .......t
3 ......f.
4 ....rr.r
5 ......r.
6 ........
7 .f......

Turn = 12.
  01234567
0 .......r
1 ......tt
2 .......t
3 ......f.
4 ........
5 rr......
6 ........
7 .f.r....

*** Darwin 13x15 ***
Turn = 0.
  012345678901234
0 ....f..........
1 .......r.......
2 ...............
3 ......f........
4 ...............
5 ...............
6 ...............
7 ...h...........
8 ...............
9 ...............
0 ...............
1 ...............
2 ..............t

Turn = 12.
  012345678901234
0 ...hf.........r
1 ...............
2 ...............
3 ......f........
4 ...............
5 ...............
6 ...............
7 ...............
8 ...............
9 ...............
0 ...............
1 ...............
2 ..............t

*** Darwin 13x11 ***
Turn = 0.
  01234567890
0 r..........
1 ........t..
2 ...........
3 ..........r
4 ...........
5 ...........
6 ..t........
7 ...........
8 ...........
9 ...h.......
0 ...........
1 ...........
2 ...........

Turn = 9.
  01234567890
0 .........r.
1 ........t..
2 ...........
3 .r.........
4 ...........
5 ...........
6 ..t........
7 ...........
8 ...........
9 ...........
0 ...........
1 ...........
2 ...h.......

*** Darwin 6x10 ***
Turn = 0.
  0123456789
0 ..........
1 ..........
2 ....h.....
3 ..........
4 ..hf.h....
5 ..........

Turn = 2.
  0123456789
0 ..........
1 ..........
2 ..h...h...
3 ..........
4 ...fh.....
5 ..........

Turn = 4.
  0123456789
0 ..h.......
1 ..........
2 ........h.
3 ..........
4 ...fh.....
5 ..........

*** Darwin 7x13 ***
Turn = 0.
  0123456789012
0 .........h...
1 ..t.r.r......
2 ....f.h..f...
3 ........f....
4 ..........t..
5 .......r.....
6 ..t..........

Turn = 10.
  0123456789012
0 ..r......h...
1 .............
2 ....fh...f...
3 r.......f....
4 ..........t..
5 rr...........
6 ..t..........

*** Darwin 13x12 ***
Turn = 0.
  012345678901
0 ............
1 ............
2 ............
3 .....h......
4 ............
5 ............
6 ............
7 r...........
8 .....h......
9 ............
0 ..r.........
1 ............
2 ............

Turn = 4.
  012345678901
0 ............
1 ............
2 ............
3 ............
4 ............
5 ............
6 ............
7 ....rh......
8 .h..........
9 r...........
0 ............
1 ............
2 ............

*** Darwin 11x8 ***
Turn = 0.
  01234567
0 .......t
1 ........
2 ........
3 ........
4 f.......
5 ...t....
6 ........
7 ........
8 ..r.....
9 ........
0 ......f.

Turn = 6.
  01234567
0 .......t
1 ........
2 ........
3 ........
4 f.......
5 r..t....
6 ........
7 ........
8 ........
9 ........
0 ......f.

*** Darwin 8x11 ***
Turn = 0.
  01234567890
0 ...........
1 f..........
2 ...........
3 ..........r
4 ...........
5 ...........
6 ..t...t....
7 ...........

Turn = 11.
  01234567890
0 ...........
1 f..........
2 ...........
3 ...........
4 ...........
5 ...........
6 ..t...t....
7 .......r...

*** Darwin 5x13 ***
Turn = 0.
  0123456789012
0 .............
1 .............
2 .............
3 ....f........
4 ..r...r......

Turn = 3.
  0123456789012
0 .............
1 .............
2 .............
3 ....f........
4 .....r...r...

*** Darwin 9x11 ***
Turn = 0.
  01234567890
0 ...........
1 ...........
2 ...........
3 ...........
4 .rr........
5 ...........
6 .....r.....
7 ...........
8 ...........

Turn = 1.
  01234567890
0 ...........
1 ...........
2 ...........
3 ...........
4 .r.........
5 .r.........
6 ...........
7 .....r.....
8 ...........

Turn = 2.
  01234567890
0 ...........
1 ...........
2 ...........
3 ...........
4 r..........
5 ...........
6 .r.........
7 ...........
8 .....r.....

Turn = 3.
  01234567890
0 ...........
1 ...........
2 ...........
3 ...........
4 r..........
5 ...........
6 ...........
7 .r.........
8 .....r.....

Turn = 4.
  01234567890
0 ...........
1 ...........
2 ...........
3 r..........
4 ...........
5 ...........
6 ...........
7 ...........
8 .r....r....

Turn = 5.
  01234567890
0 ...........
1 ...........
2 r..........
3 ...........
4 ...........
5 ...........
6 ...........
7 ...........
8 .r.....r...

*** Darwin 5x13 ***
Turn = 0.
  0123456789012
0 ...........h.
1 r............
2 ......h......
3 ...t.........
4 t...fh..h....

Turn = 3.
  0123456789012
0 r.....h.....h
1 ........h....
2 .............
3 ...t.........
4 t...f...h....

*** Darwin 7x14 ***
Turn = 0.
  01234567890123
0 r.............
1 .............f
2 .t.........h..
3 ...t....t..r.r
4 .........r....
5 ..............
6 ..r....r......

Turn = 1.
  01234567890123
0 r.............
1 .............f
2 .t.........h..
3 ...t....t...rr
4 ........r.....
5 ..............
6 .r....r.......

*** Darwin 15x13 ***
Turn = 0.
  0123456789012
0 .............
1 .............
2 h............
3 .............
4 .............
5 .............
6 ............h
7 .............
8 r..........t.
9 ..r..........
0 ..f..........
1 .............
2 .............
3 .............
4 .............

Turn = 3.
  0123456789012
0 h............
1 .............
2 .............
3 .............
4 .............
5 r............
6 ..r.........h
7 .............
8 ...........t.
9 .............
0 ..f..........
1 .............
2 .............
3 .............
4 .............

*** Darwin 8x12 ***
Turn = 0.
  012345678901
0 ............
1 ............
2 ...tt.......
3 ....t.......
4 ......r.....
5 ............
6 .f.......h..
7 ............

Turn = 3.
  012345678901
0 ............
1 ............
2 ...tt.......
3 ....t....h..
4 ...r........
5 ............
6 .f..........
7 ............

*** Darwin 5x5 ***
Turn = 0.
  01234
0 h.ht.
1 ...ft
2 ..r..
3 .....
4 ...r.

Turn = 2.
  01234
0 h.rt.
1 ..rtt
2 .....
3 .....
4 ..r..

Turn = 4.
  01234
0 hr.t.
1 ..ttt
2 .....
3 .....
4 r....

Turn = 6.
  01234
0 rr.t.
1 ..ttt
2 .....
3 r....
4 .....

Turn = 8.
  01234
0 rr.t.
1 r.ttt
2 .....
3 .....
4 .....

*** Darwin 12x8 ***
Turn = 0.
  01234567
0 .......f
1 ...r....
2 .f....r.
3 t.......
4 ....r...
5 ..t..f..
6 ........
7 f.......
8 ........
9 .......r
0 ........
1 .....r.h

Turn = 3.
  01234567
0 ......rf
1 ......r.
2 .f......
3 t.......
4 .......r
5 ..t..f..
6 .......r
7 f.......
8 ........
9 ........
0 .......r
1 ......r.

*** Darwin 13x7 ***
Turn = 0.
  0123456
0 ...r...
1 .......
2 .......
3 ....h..
4 .....h.
5 .h.....
6 .......
7 ......h
8 ....hf.
9 r....h.
0 ...f...
1 ......r
2 ...t...

Turn = 8.
  0123456
0 ....hh.
1 .......
2 .......
3 ......r
4 .......
5 ......h
6 .....r.
7 .....rr
8 .......
9 .......
0 ...f...
1 ......r
2 ..rtt..

*** Darwin 13x13 ***
Turn = 0.
  0123456789012
0 .............
1 ........f....
2 ......t......
3 .....t.......
4 .............
5 .............
6 ...f.........
7 .t........r..
8 .............
9 .............
0 .............
1 .........r...
2 .........f...

Turn = 4.
  0123456789012
0 .............
1 ........f....
2 ......t......
3 .....t.......
4 .............
5 .............
6 ...f.........
7 .t.......r...
8 ............r
9 .............
0 .............
1 .............
2 .........f...

*** Darwin 11x13 ***
Turn = 0.
  0123456789012
0 .............
1 .............
2 ..t..........
3 .....f.......
4 ............t
5 .............
6 .............
7 .........h...
8 .............
9 .............
0 .............

Turn = 1.
  0123456789012
0 .............
1 .............
2 ..t..........
3 .....f.......
4 ............t
5 .............
6 .............
7 ..........h..
8 .............
9 .............
0 .............

*** Darwin 12x7 ***
Turn = 0.
  0123456
0 .......
1 .......
2 ..r....
3 ..r....
4 .......
5 .......
6 .t.r...
7 .......
8 .t.....
9 h.h....
0 .......
1 f......

Turn = 5.
  0123456
0 r......
1 .......
2 .......
3 ......r
4 .rr....
5 .......
6 .......
7 .......
8 .t.....
9 .tt....
0 .......
1 f......

Turn = 10.
  0123456
0 .rr.r..
1 .......
2 .......
3 .......
4 .......
5 .......
6 .......
7 .......
8 .t....r
9 .tt....
0 .......
1 f......
